%YAML 1.1
%TAG !u! tag:unity3d.com,2011:
--- !u!74 &7400000
AnimationClip:
  m_ObjectHideFlags: 0
  m_CorrespondingSourceObject: {fileID: 0}
  m_PrefabInstance: {fileID: 0}
  m_PrefabAsset: {fileID: 0}
  m_Name: Attack
  serializedVersion: 6
  m_Legacy: 0
  m_Compressed: 0
  m_UseHighQualityCurve: 1
  m_RotationCurves: []
  m_CompressedRotationCurves: []
  m_EulerCurves: []
  m_PositionCurves: []
  m_ScaleCurves: []
  m_FloatCurves: []
  m_PPtrCurves:
  - curve:
    - time: 0
      value: {fileID: -2190656403311318667, guid: 58efb627affefde4b84bef1eb1acbcb2,
        type: 3}
    - time: 0.06666667
      value: {fileID: -2164390262217125780, guid: 58efb627affefde4b84bef1eb1acbcb2,
        type: 3}
    - time: 0.13333334
      value: {fileID: 8205725436860858731, guid: 58efb627affefde4b84bef1eb1acbcb2,
        type: 3}
    - time: 0.2
      value: {fileID: 7762030296897832289, guid: 58efb627affefde4b84bef1eb1acbcb2,
        type: 3}
    - time: 0.26666668
      value: {fileID: 2901408407303680429, guid: 58efb627affefde4b84bef1eb1acbcb2,
        type: 3}
    - time: 0.33333334
      value: {fileID: 7656676405671267585, guid: 58efb627affefde4b84bef1eb1acbcb2,
        type: 3}
    - time: 0.4
      value: {fileID: 4445097717362784890, guid: 58efb627affefde4b84bef1eb1acbcb2,
        type: 3}
    - time: 0.46666667
      value: {fileID: 7643843718930098989, guid: 58efb627affefde4b84bef1eb1acbcb2,
        type: 3}
    - time: 0.53333336
      value: {fileID: 5322809409009966297, guid: 58efb627affefde4b84bef1eb1acbcb2,
        type: 3}
    - time: 0.6
      value: {fileID: -8850451460641428638, guid: 58efb627affefde4b84bef1eb1acbcb2,
        type: 3}
    - time: 0.6666667
      value: {fileID: 5179963982371477408, guid: 58efb627affefde4b84bef1eb1acbcb2,
        type: 3}
    - time: 0.73333335
      value: {fileID: 3748581419874549112, guid: 58efb627affefde4b84bef1eb1acbcb2,
        type: 3}
    - time: 0.8
      value: {fileID: -3964605801733766488, guid: 58efb627affefde4b84bef1eb1acbcb2,
        type: 3}
    - time: 0.8666667
      value: {fileID: 5485868483601219220, guid: 58efb627affefde4b84bef1eb1acbcb2,
        type: 3}
    - time: 0.93333334
      value: {fileID: -1348668729108019738, guid: 58efb627affefde4b84bef1eb1acbcb2,
        type: 3}
    - time: 1
      value: {fileID: 110938966640214830, guid: 58efb627affefde4b84bef1eb1acbcb2,
        type: 3}
    attribute: m_Sprite
    path: 
    classID: 212
    script: {fileID: 0}
  m_SampleRate: 15
  m_WrapMode: 0
  m_Bounds:
    m_Center: {x: 0, y: 0, z: 0}
    m_Extent: {x: 0, y: 0, z: 0}
  m_ClipBindingConstant:
    genericBindings:
    - serializedVersion: 2
      path: 0
      attribute: 0
      script: {fileID: 0}
      typeID: 212
      customType: 23
      isPPtrCurve: 1
    pptrCurveMapping:
    - {fileID: -2190656403311318667, guid: 58efb627affefde4b84bef1eb1acbcb2, type: 3}
    - {fileID: -2164390262217125780, guid: 58efb627affefde4b84bef1eb1acbcb2, type: 3}
    - {fileID: 8205725436860858731, guid: 58efb627affefde4b84bef1eb1acbcb2, type: 3}
    - {fileID: 7762030296897832289, guid: 58efb627affefde4b84bef1eb1acbcb2, type: 3}
    - {fileID: 2901408407303680429, guid: 58efb627affefde4b84bef1eb1acbcb2, type: 3}
    - {fileID: 7656676405671267585, guid: 58efb627affefde4b84bef1eb1acbcb2, type: 3}
    - {fileID: 4445097717362784890, guid: 58efb627affefde4b84bef1eb1acbcb2, type: 3}
    - {fileID: 7643843718930098989, guid: 58efb627affefde4b84bef1eb1acbcb2, type: 3}
    - {fileID: 5322809409009966297, guid: 58efb627affefde4b84bef1eb1acbcb2, type: 3}
    - {fileID: -8850451460641428638, guid: 58efb627affefde4b84bef1eb1acbcb2, type: 3}
    - {fileID: 5179963982371477408, guid: 58efb627affefde4b84bef1eb1acbcb2, type: 3}
    - {fileID: 3748581419874549112, guid: 58efb627affefde4b84bef1eb1acbcb2, type: 3}
    - {fileID: -3964605801733766488, guid: 58efb627affefde4b84bef1eb1acbcb2, type: 3}
    - {fileID: 5485868483601219220, guid: 58efb627affefde4b84bef1eb1acbcb2, type: 3}
    - {fileID: -1348668729108019738, guid: 58efb627affefde4b84bef1eb1acbcb2, type: 3}
    - {fileID: 110938966640214830, guid: 58efb627affefde4b84bef1eb1acbcb2, type: 3}
  m_AnimationClipSettings:
    serializedVersion: 2
    m_AdditiveReferencePoseClip: {fileID: 0}
    m_AdditiveReferencePoseTime: 0
    m_StartTime: 0
    m_StopTime: 1.0666667
    m_OrientationOffsetY: 0
    m_Level: 0
    m_CycleOffset: 0
    m_HasAdditiveReferencePose: 0
    m_LoopTime: 1
    m_LoopBlend: 0
    m_LoopBlendOrientation: 0
    m_LoopBlendPositionY: 0
    m_LoopBlendPositionXZ: 0
    m_KeepOriginalOrientation: 0
    m_KeepOriginalPositionY: 1
    m_KeepOriginalPositionXZ: 0
    m_HeightFromFeet: 0
    m_Mirror: 0
  m_EditorCurves: []
  m_EulerEditorCurves: []
  m_HasGenericRootTransform: 0
  m_HasMotionFloatCurves: 0
  m_Events:
  - time: 0.33333334
    functionName: SoundAttack
    data: 
    objectReferenceParameter: {fileID: 0}
    floatParameter: 0
    intParameter: 0
    messageOptions: 0
  - time: 0.4
    functionName: EnableAttackCollider
    data: 
    objectReferenceParameter: {fileID: 0}
    floatParameter: 0
    intParameter: 0
    messageOptions: 0
  - time: 0.8666667
    functionName: DisableAttackCollider
    data: 
    objectReferenceParameter: {fileID: 0}
    floatParameter: 0
    intParameter: 0
    messageOptions: 0
