%YAML 1.1
%TAG !u! tag:unity3d.com,2011:
--- !u!181963792 &2655988077585873504
Preset:
  m_ObjectHideFlags: 0
  m_CorrespondingSourceObject: {fileID: 0}
  m_PrefabInstance: {fileID: 0}
  m_PrefabAsset: {fileID: 0}
  m_Name: SimpleSprite
  m_TargetType:
    m_NativeTypeID: 1006
    m_ManagedTypePPtr: {fileID: 0}
    m_ManagedTypeFallback: 
  m_Properties:
  - target: {fileID: 0}
    propertyPath: m_ExternalObjects.Array.size
    value: 0
    objectReference: {fileID: 0}
  - target: {fileID: 0}
    propertyPath: m_MipMapMode
    value: 0
    objectReference: {fileID: 0}
  - target: {fileID: 0}
    propertyPath: m_EnableMipMap
    value: 0
    objectReference: {fileID: 0}
  - target: {fileID: 0}
    propertyPath: m_sRGBTexture
    value: 1
    objectReference: {fileID: 0}
  - target: {fileID: 0}
    propertyPath: m_LinearTexture
    value: 0
    objectReference: {fileID: 0}
  - target: {fileID: 0}
    propertyPath: m_FadeOut
    value: 0
    objectReference: {fileID: 0}
  - target: {fileID: 0}
    propertyPath: m_BorderMipMap
    value: 0
    objectReference: {fileID: 0}
  - target: {fileID: 0}
    propertyPath: m_MipMapsPreserveCoverage
    value: 0
    objectReference: {fileID: 0}
  - target: {fileID: 0}
    propertyPath: m_AlphaTestReferenceValue
    value: 0.5
    objectReference: {fileID: 0}
  - target: {fileID: 0}
    propertyPath: m_MipMapFadeDistanceStart
    value: 1
    objectReference: {fileID: 0}
  - target: {fileID: 0}
    propertyPath: m_MipMapFadeDistanceEnd
    value: 3
    objectReference: {fileID: 0}
  - target: {fileID: 0}
    propertyPath: m_ConvertToNormalMap
    value: 0
    objectReference: {fileID: 0}
  - target: {fileID: 0}
    propertyPath: m_ExternalNormalMap
    value: 0
    objectReference: {fileID: 0}
  - target: {fileID: 0}
    propertyPath: m_HeightScale
    value: 0.25
    objectReference: {fileID: 0}
  - target: {fileID: 0}
    propertyPath: m_NormalMapFilter
    value: 0
    objectReference: {fileID: 0}
  - target: {fileID: 0}
    propertyPath: m_IsReadable
    value: 0
    objectReference: {fileID: 0}
  - target: {fileID: 0}
    propertyPath: m_StreamingMipmaps
    value: 0
    objectReference: {fileID: 0}
  - target: {fileID: 0}
    propertyPath: m_StreamingMipmapsPriority
    value: 0
    objectReference: {fileID: 0}
  - target: {fileID: 0}
    propertyPath: m_GrayScaleToAlpha
    value: 0
    objectReference: {fileID: 0}
  - target: {fileID: 0}
    propertyPath: m_GenerateCubemap
    value: 6
    objectReference: {fileID: 0}
  - target: {fileID: 0}
    propertyPath: m_CubemapConvolution
    value: 0
    objectReference: {fileID: 0}
  - target: {fileID: 0}
    propertyPath: m_SeamlessCubemap
    value: 0
    objectReference: {fileID: 0}
  - target: {fileID: 0}
    propertyPath: m_TextureFormat
    value: 1
    objectReference: {fileID: 0}
  - target: {fileID: 0}
    propertyPath: m_MaxTextureSize
    value: 2048
    objectReference: {fileID: 0}
  - target: {fileID: 0}
    propertyPath: m_TextureSettings.m_FilterMode
    value: 0
    objectReference: {fileID: 0}
  - target: {fileID: 0}
    propertyPath: m_TextureSettings.m_Aniso
    value: -1
    objectReference: {fileID: 0}
  - target: {fileID: 0}
    propertyPath: m_TextureSettings.m_MipBias
    value: -100
    objectReference: {fileID: 0}
  - target: {fileID: 0}
    propertyPath: m_TextureSettings.m_WrapU
    value: 1
    objectReference: {fileID: 0}
  - target: {fileID: 0}
    propertyPath: m_TextureSettings.m_WrapV
    value: 1
    objectReference: {fileID: 0}
  - target: {fileID: 0}
    propertyPath: m_TextureSettings.m_WrapW
    value: 1
    objectReference: {fileID: 0}
  - target: {fileID: 0}
    propertyPath: m_NPOTScale
    value: 0
    objectReference: {fileID: 0}
  - target: {fileID: 0}
    propertyPath: m_Lightmap
    value: 0
    objectReference: {fileID: 0}
  - target: {fileID: 0}
    propertyPath: m_CompressionQuality
    value: 50
    objectReference: {fileID: 0}
  - target: {fileID: 0}
    propertyPath: m_SpriteMode
    value: 1
    objectReference: {fileID: 0}
  - target: {fileID: 0}
    propertyPath: m_SpriteExtrude
    value: 1
    objectReference: {fileID: 0}
  - target: {fileID: 0}
    propertyPath: m_SpriteMeshType
    value: 0
    objectReference: {fileID: 0}
  - target: {fileID: 0}
    propertyPath: m_Alignment
    value: 0
    objectReference: {fileID: 0}
  - target: {fileID: 0}
    propertyPath: m_SpritePivot.x
    value: 0.5
    objectReference: {fileID: 0}
  - target: {fileID: 0}
    propertyPath: m_SpritePivot.y
    value: 0.5
    objectReference: {fileID: 0}
  - target: {fileID: 0}
    propertyPath: m_SpritePixelsToUnits
    value: 72
    objectReference: {fileID: 0}
  - target: {fileID: 0}
    propertyPath: m_SpriteBorder.x
    value: 0
    objectReference: {fileID: 0}
  - target: {fileID: 0}
    propertyPath: m_SpriteBorder.y
    value: 0
    objectReference: {fileID: 0}
  - target: {fileID: 0}
    propertyPath: m_SpriteBorder.z
    value: 0
    objectReference: {fileID: 0}
  - target: {fileID: 0}
    propertyPath: m_SpriteBorder.w
    value: 0
    objectReference: {fileID: 0}
  - target: {fileID: 0}
    propertyPath: m_SpriteGenerateFallbackPhysicsShape
    value: 0
    objectReference: {fileID: 0}
  - target: {fileID: 0}
    propertyPath: m_AlphaUsage
    value: 1
    objectReference: {fileID: 0}
  - target: {fileID: 0}
    propertyPath: m_AlphaIsTransparency
    value: 1
    objectReference: {fileID: 0}
  - target: {fileID: 0}
    propertyPath: m_SpriteTessellationDetail
    value: -1
    objectReference: {fileID: 0}
  - target: {fileID: 0}
    propertyPath: m_TextureType
    value: 8
    objectReference: {fileID: 0}
  - target: {fileID: 0}
    propertyPath: m_TextureShape
    value: 1
    objectReference: {fileID: 0}
  - target: {fileID: 0}
    propertyPath: m_SingleChannelComponent
    value: 0
    objectReference: {fileID: 0}
  - target: {fileID: 0}
    propertyPath: m_MaxTextureSizeSet
    value: 0
    objectReference: {fileID: 0}
  - target: {fileID: 0}
    propertyPath: m_CompressionQualitySet
    value: 0
    objectReference: {fileID: 0}
  - target: {fileID: 0}
    propertyPath: m_TextureFormatSet
    value: 0
    objectReference: {fileID: 0}
  - target: {fileID: 0}
    propertyPath: m_ApplyGammaDecoding
    value: 0
    objectReference: {fileID: 0}
  - target: {fileID: 0}
    propertyPath: m_PlatformSettings.Array.size
    value: 2
    objectReference: {fileID: 0}
  - target: {fileID: 0}
    propertyPath: m_PlatformSettings.Array.data[0].m_BuildTarget
    value: DefaultTexturePlatform
    objectReference: {fileID: 0}
  - target: {fileID: 0}
    propertyPath: m_PlatformSettings.Array.data[0].m_MaxTextureSize
    value: 8192
    objectReference: {fileID: 0}
  - target: {fileID: 0}
    propertyPath: m_PlatformSettings.Array.data[0].m_ResizeAlgorithm
    value: 0
    objectReference: {fileID: 0}
  - target: {fileID: 0}
    propertyPath: m_PlatformSettings.Array.data[0].m_TextureFormat
    value: -1
    objectReference: {fileID: 0}
  - target: {fileID: 0}
    propertyPath: m_PlatformSettings.Array.data[0].m_TextureCompression
    value: 1
    objectReference: {fileID: 0}
  - target: {fileID: 0}
    propertyPath: m_PlatformSettings.Array.data[0].m_CompressionQuality
    value: 50
    objectReference: {fileID: 0}
  - target: {fileID: 0}
    propertyPath: m_PlatformSettings.Array.data[0].m_CrunchedCompression
    value: 0
    objectReference: {fileID: 0}
  - target: {fileID: 0}
    propertyPath: m_PlatformSettings.Array.data[0].m_AllowsAlphaSplitting
    value: 0
    objectReference: {fileID: 0}
  - target: {fileID: 0}
    propertyPath: m_PlatformSettings.Array.data[0].m_Overridden
    value: 0
    objectReference: {fileID: 0}
  - target: {fileID: 0}
    propertyPath: m_PlatformSettings.Array.data[0].m_AndroidETC2FallbackOverride
    value: 0
    objectReference: {fileID: 0}
  - target: {fileID: 0}
    propertyPath: m_PlatformSettings.Array.data[0].m_ForceMaximumCompressionQuality_BC6H_BC7
    value: 0
    objectReference: {fileID: 0}
  - target: {fileID: 0}
    propertyPath: m_PlatformSettings.Array.data[1].m_BuildTarget
    value: Standalone
    objectReference: {fileID: 0}
  - target: {fileID: 0}
    propertyPath: m_PlatformSettings.Array.data[1].m_MaxTextureSize
    value: 8192
    objectReference: {fileID: 0}
  - target: {fileID: 0}
    propertyPath: m_PlatformSettings.Array.data[1].m_ResizeAlgorithm
    value: 0
    objectReference: {fileID: 0}
  - target: {fileID: 0}
    propertyPath: m_PlatformSettings.Array.data[1].m_TextureFormat
    value: -1
    objectReference: {fileID: 0}
  - target: {fileID: 0}
    propertyPath: m_PlatformSettings.Array.data[1].m_TextureCompression
    value: 1
    objectReference: {fileID: 0}
  - target: {fileID: 0}
    propertyPath: m_PlatformSettings.Array.data[1].m_CompressionQuality
    value: 50
    objectReference: {fileID: 0}
  - target: {fileID: 0}
    propertyPath: m_PlatformSettings.Array.data[1].m_CrunchedCompression
    value: 0
    objectReference: {fileID: 0}
  - target: {fileID: 0}
    propertyPath: m_PlatformSettings.Array.data[1].m_AllowsAlphaSplitting
    value: 0
    objectReference: {fileID: 0}
  - target: {fileID: 0}
    propertyPath: m_PlatformSettings.Array.data[1].m_Overridden
    value: 0
    objectReference: {fileID: 0}
  - target: {fileID: 0}
    propertyPath: m_PlatformSettings.Array.data[1].m_AndroidETC2FallbackOverride
    value: 0
    objectReference: {fileID: 0}
  - target: {fileID: 0}
    propertyPath: m_PlatformSettings.Array.data[1].m_ForceMaximumCompressionQuality_BC6H_BC7
    value: 0
    objectReference: {fileID: 0}
  - target: {fileID: 0}
    propertyPath: m_SpriteSheet.m_Sprites.Array.size
    value: 20
    objectReference: {fileID: 0}
  - target: {fileID: 0}
    propertyPath: m_SpriteSheet.m_Sprites.Array.data[0].m_Name
    value: Char_atk_ground_combo_0
    objectReference: {fileID: 0}
  - target: {fileID: 0}
    propertyPath: m_SpriteSheet.m_Sprites.Array.data[0].m_Rect.x
    value: 0
    objectReference: {fileID: 0}
  - target: {fileID: 0}
    propertyPath: m_SpriteSheet.m_Sprites.Array.data[0].m_Rect.y
    value: 0
    objectReference: {fileID: 0}
  - target: {fileID: 0}
    propertyPath: m_SpriteSheet.m_Sprites.Array.data[0].m_Rect.width
    value: 312
    objectReference: {fileID: 0}
  - target: {fileID: 0}
    propertyPath: m_SpriteSheet.m_Sprites.Array.data[0].m_Rect.height
    value: 170
    objectReference: {fileID: 0}
  - target: {fileID: 0}
    propertyPath: m_SpriteSheet.m_Sprites.Array.data[0].m_Alignment
    value: 0
    objectReference: {fileID: 0}
  - target: {fileID: 0}
    propertyPath: m_SpriteSheet.m_Sprites.Array.data[0].m_Pivot.x
    value: 0
    objectReference: {fileID: 0}
  - target: {fileID: 0}
    propertyPath: m_SpriteSheet.m_Sprites.Array.data[0].m_Pivot.y
    value: 0
    objectReference: {fileID: 0}
  - target: {fileID: 0}
    propertyPath: m_SpriteSheet.m_Sprites.Array.data[0].m_Border.x
    value: 0
    objectReference: {fileID: 0}
  - target: {fileID: 0}
    propertyPath: m_SpriteSheet.m_Sprites.Array.data[0].m_Border.y
    value: 0
    objectReference: {fileID: 0}
  - target: {fileID: 0}
    propertyPath: m_SpriteSheet.m_Sprites.Array.data[0].m_Border.z
    value: 0
    objectReference: {fileID: 0}
  - target: {fileID: 0}
    propertyPath: m_SpriteSheet.m_Sprites.Array.data[0].m_Border.w
    value: 0
    objectReference: {fileID: 0}
  - target: {fileID: 0}
    propertyPath: m_SpriteSheet.m_Sprites.Array.data[0].m_Outline.Array.size
    value: 0
    objectReference: {fileID: 0}
  - target: {fileID: 0}
    propertyPath: m_SpriteSheet.m_Sprites.Array.data[0].m_PhysicsShape.Array.size
    value: 0
    objectReference: {fileID: 0}
  - target: {fileID: 0}
    propertyPath: m_SpriteSheet.m_Sprites.Array.data[0].m_TessellationDetail
    value: 0
    objectReference: {fileID: 0}
  - target: {fileID: 0}
    propertyPath: m_SpriteSheet.m_Sprites.Array.data[0].m_Bones.Array.size
    value: 0
    objectReference: {fileID: 0}
  - target: {fileID: 0}
    propertyPath: m_SpriteSheet.m_Sprites.Array.data[0].m_SpriteID
    value: 4316900b65b62c520800000000000000
    objectReference: {fileID: 0}
  - target: {fileID: 0}
    propertyPath: m_SpriteSheet.m_Sprites.Array.data[0].m_InternalID
    value: 2720855144949965108
    objectReference: {fileID: 0}
  - target: {fileID: 0}
    propertyPath: m_SpriteSheet.m_Sprites.Array.data[0].m_Vertices.Array.size
    value: 0
    objectReference: {fileID: 0}
  - target: {fileID: 0}
    propertyPath: m_SpriteSheet.m_Sprites.Array.data[0].m_Indices.Array.size
    value: 0
    objectReference: {fileID: 0}
  - target: {fileID: 0}
    propertyPath: m_SpriteSheet.m_Sprites.Array.data[0].m_Edges.Array.size
    value: 0
    objectReference: {fileID: 0}
  - target: {fileID: 0}
    propertyPath: m_SpriteSheet.m_Sprites.Array.data[0].m_Weights.Array.size
    value: 0
    objectReference: {fileID: 0}
  - target: {fileID: 0}
    propertyPath: m_SpriteSheet.m_Sprites.Array.data[1].m_Name
    value: Char_atk_ground_combo_1
    objectReference: {fileID: 0}
  - target: {fileID: 0}
    propertyPath: m_SpriteSheet.m_Sprites.Array.data[1].m_Rect.x
    value: 312
    objectReference: {fileID: 0}
  - target: {fileID: 0}
    propertyPath: m_SpriteSheet.m_Sprites.Array.data[1].m_Rect.y
    value: 0
    objectReference: {fileID: 0}
  - target: {fileID: 0}
    propertyPath: m_SpriteSheet.m_Sprites.Array.data[1].m_Rect.width
    value: 312
    objectReference: {fileID: 0}
  - target: {fileID: 0}
    propertyPath: m_SpriteSheet.m_Sprites.Array.data[1].m_Rect.height
    value: 170
    objectReference: {fileID: 0}
  - target: {fileID: 0}
    propertyPath: m_SpriteSheet.m_Sprites.Array.data[1].m_Alignment
    value: 0
    objectReference: {fileID: 0}
  - target: {fileID: 0}
    propertyPath: m_SpriteSheet.m_Sprites.Array.data[1].m_Pivot.x
    value: 0
    objectReference: {fileID: 0}
  - target: {fileID: 0}
    propertyPath: m_SpriteSheet.m_Sprites.Array.data[1].m_Pivot.y
    value: 0
    objectReference: {fileID: 0}
  - target: {fileID: 0}
    propertyPath: m_SpriteSheet.m_Sprites.Array.data[1].m_Border.x
    value: 0
    objectReference: {fileID: 0}
  - target: {fileID: 0}
    propertyPath: m_SpriteSheet.m_Sprites.Array.data[1].m_Border.y
    value: 0
    objectReference: {fileID: 0}
  - target: {fileID: 0}
    propertyPath: m_SpriteSheet.m_Sprites.Array.data[1].m_Border.z
    value: 0
    objectReference: {fileID: 0}
  - target: {fileID: 0}
    propertyPath: m_SpriteSheet.m_Sprites.Array.data[1].m_Border.w
    value: 0
    objectReference: {fileID: 0}
  - target: {fileID: 0}
    propertyPath: m_SpriteSheet.m_Sprites.Array.data[1].m_Outline.Array.size
    value: 0
    objectReference: {fileID: 0}
  - target: {fileID: 0}
    propertyPath: m_SpriteSheet.m_Sprites.Array.data[1].m_PhysicsShape.Array.size
    value: 0
    objectReference: {fileID: 0}
  - target: {fileID: 0}
    propertyPath: m_SpriteSheet.m_Sprites.Array.data[1].m_TessellationDetail
    value: 0
    objectReference: {fileID: 0}
  - target: {fileID: 0}
    propertyPath: m_SpriteSheet.m_Sprites.Array.data[1].m_Bones.Array.size
    value: 0
    objectReference: {fileID: 0}
  - target: {fileID: 0}
    propertyPath: m_SpriteSheet.m_Sprites.Array.data[1].m_SpriteID
    value: 4827e4de97571d850800000000000000
    objectReference: {fileID: 0}
  - target: {fileID: 0}
    propertyPath: m_SpriteSheet.m_Sprites.Array.data[1].m_InternalID
    value: 6400025712003019396
    objectReference: {fileID: 0}
  - target: {fileID: 0}
    propertyPath: m_SpriteSheet.m_Sprites.Array.data[1].m_Vertices.Array.size
    value: 0
    objectReference: {fileID: 0}
  - target: {fileID: 0}
    propertyPath: m_SpriteSheet.m_Sprites.Array.data[1].m_Indices.Array.size
    value: 0
    objectReference: {fileID: 0}
  - target: {fileID: 0}
    propertyPath: m_SpriteSheet.m_Sprites.Array.data[1].m_Edges.Array.size
    value: 0
    objectReference: {fileID: 0}
  - target: {fileID: 0}
    propertyPath: m_SpriteSheet.m_Sprites.Array.data[1].m_Weights.Array.size
    value: 0
    objectReference: {fileID: 0}
  - target: {fileID: 0}
    propertyPath: m_SpriteSheet.m_Sprites.Array.data[2].m_Name
    value: Char_atk_ground_combo_2
    objectReference: {fileID: 0}
  - target: {fileID: 0}
    propertyPath: m_SpriteSheet.m_Sprites.Array.data[2].m_Rect.x
    value: 624
    objectReference: {fileID: 0}
  - target: {fileID: 0}
    propertyPath: m_SpriteSheet.m_Sprites.Array.data[2].m_Rect.y
    value: 0
    objectReference: {fileID: 0}
  - target: {fileID: 0}
    propertyPath: m_SpriteSheet.m_Sprites.Array.data[2].m_Rect.width
    value: 312
    objectReference: {fileID: 0}
  - target: {fileID: 0}
    propertyPath: m_SpriteSheet.m_Sprites.Array.data[2].m_Rect.height
    value: 170
    objectReference: {fileID: 0}
  - target: {fileID: 0}
    propertyPath: m_SpriteSheet.m_Sprites.Array.data[2].m_Alignment
    value: 0
    objectReference: {fileID: 0}
  - target: {fileID: 0}
    propertyPath: m_SpriteSheet.m_Sprites.Array.data[2].m_Pivot.x
    value: 0
    objectReference: {fileID: 0}
  - target: {fileID: 0}
    propertyPath: m_SpriteSheet.m_Sprites.Array.data[2].m_Pivot.y
    value: 0
    objectReference: {fileID: 0}
  - target: {fileID: 0}
    propertyPath: m_SpriteSheet.m_Sprites.Array.data[2].m_Border.x
    value: 0
    objectReference: {fileID: 0}
  - target: {fileID: 0}
    propertyPath: m_SpriteSheet.m_Sprites.Array.data[2].m_Border.y
    value: 0
    objectReference: {fileID: 0}
  - target: {fileID: 0}
    propertyPath: m_SpriteSheet.m_Sprites.Array.data[2].m_Border.z
    value: 0
    objectReference: {fileID: 0}
  - target: {fileID: 0}
    propertyPath: m_SpriteSheet.m_Sprites.Array.data[2].m_Border.w
    value: 0
    objectReference: {fileID: 0}
  - target: {fileID: 0}
    propertyPath: m_SpriteSheet.m_Sprites.Array.data[2].m_Outline.Array.size
    value: 0
    objectReference: {fileID: 0}
  - target: {fileID: 0}
    propertyPath: m_SpriteSheet.m_Sprites.Array.data[2].m_PhysicsShape.Array.size
    value: 0
    objectReference: {fileID: 0}
  - target: {fileID: 0}
    propertyPath: m_SpriteSheet.m_Sprites.Array.data[2].m_TessellationDetail
    value: 0
    objectReference: {fileID: 0}
  - target: {fileID: 0}
    propertyPath: m_SpriteSheet.m_Sprites.Array.data[2].m_Bones.Array.size
    value: 0
    objectReference: {fileID: 0}
  - target: {fileID: 0}
    propertyPath: m_SpriteSheet.m_Sprites.Array.data[2].m_SpriteID
    value: 32237437b170ce7c0800000000000000
    objectReference: {fileID: 0}
  - target: {fileID: 0}
    propertyPath: m_SpriteSheet.m_Sprites.Array.data[2].m_InternalID
    value: -4040846951178620381
    objectReference: {fileID: 0}
  - target: {fileID: 0}
    propertyPath: m_SpriteSheet.m_Sprites.Array.data[2].m_Vertices.Array.size
    value: 0
    objectReference: {fileID: 0}
  - target: {fileID: 0}
    propertyPath: m_SpriteSheet.m_Sprites.Array.data[2].m_Indices.Array.size
    value: 0
    objectReference: {fileID: 0}
  - target: {fileID: 0}
    propertyPath: m_SpriteSheet.m_Sprites.Array.data[2].m_Edges.Array.size
    value: 0
    objectReference: {fileID: 0}
  - target: {fileID: 0}
    propertyPath: m_SpriteSheet.m_Sprites.Array.data[2].m_Weights.Array.size
    value: 0
    objectReference: {fileID: 0}
  - target: {fileID: 0}
    propertyPath: m_SpriteSheet.m_Sprites.Array.data[3].m_Name
    value: Char_atk_ground_combo_3
    objectReference: {fileID: 0}
  - target: {fileID: 0}
    propertyPath: m_SpriteSheet.m_Sprites.Array.data[3].m_Rect.x
    value: 936
    objectReference: {fileID: 0}
  - target: {fileID: 0}
    propertyPath: m_SpriteSheet.m_Sprites.Array.data[3].m_Rect.y
    value: 0
    objectReference: {fileID: 0}
  - target: {fileID: 0}
    propertyPath: m_SpriteSheet.m_Sprites.Array.data[3].m_Rect.width
    value: 312
    objectReference: {fileID: 0}
  - target: {fileID: 0}
    propertyPath: m_SpriteSheet.m_Sprites.Array.data[3].m_Rect.height
    value: 170
    objectReference: {fileID: 0}
  - target: {fileID: 0}
    propertyPath: m_SpriteSheet.m_Sprites.Array.data[3].m_Alignment
    value: 0
    objectReference: {fileID: 0}
  - target: {fileID: 0}
    propertyPath: m_SpriteSheet.m_Sprites.Array.data[3].m_Pivot.x
    value: 0
    objectReference: {fileID: 0}
  - target: {fileID: 0}
    propertyPath: m_SpriteSheet.m_Sprites.Array.data[3].m_Pivot.y
    value: 0
    objectReference: {fileID: 0}
  - target: {fileID: 0}
    propertyPath: m_SpriteSheet.m_Sprites.Array.data[3].m_Border.x
    value: 0
    objectReference: {fileID: 0}
  - target: {fileID: 0}
    propertyPath: m_SpriteSheet.m_Sprites.Array.data[3].m_Border.y
    value: 0
    objectReference: {fileID: 0}
  - target: {fileID: 0}
    propertyPath: m_SpriteSheet.m_Sprites.Array.data[3].m_Border.z
    value: 0
    objectReference: {fileID: 0}
  - target: {fileID: 0}
    propertyPath: m_SpriteSheet.m_Sprites.Array.data[3].m_Border.w
    value: 0
    objectReference: {fileID: 0}
  - target: {fileID: 0}
    propertyPath: m_SpriteSheet.m_Sprites.Array.data[3].m_Outline.Array.size
    value: 0
    objectReference: {fileID: 0}
  - target: {fileID: 0}
    propertyPath: m_SpriteSheet.m_Sprites.Array.data[3].m_PhysicsShape.Array.size
    value: 0
    objectReference: {fileID: 0}
  - target: {fileID: 0}
    propertyPath: m_SpriteSheet.m_Sprites.Array.data[3].m_TessellationDetail
    value: 0
    objectReference: {fileID: 0}
  - target: {fileID: 0}
    propertyPath: m_SpriteSheet.m_Sprites.Array.data[3].m_Bones.Array.size
    value: 0
    objectReference: {fileID: 0}
  - target: {fileID: 0}
    propertyPath: m_SpriteSheet.m_Sprites.Array.data[3].m_SpriteID
    value: 1a5e906569271f1e0800000000000000
    objectReference: {fileID: 0}
  - target: {fileID: 0}
    propertyPath: m_SpriteSheet.m_Sprites.Array.data[3].m_InternalID
    value: -2165823955774347871
    objectReference: {fileID: 0}
  - target: {fileID: 0}
    propertyPath: m_SpriteSheet.m_Sprites.Array.data[3].m_Vertices.Array.size
    value: 0
    objectReference: {fileID: 0}
  - target: {fileID: 0}
    propertyPath: m_SpriteSheet.m_Sprites.Array.data[3].m_Indices.Array.size
    value: 0
    objectReference: {fileID: 0}
  - target: {fileID: 0}
    propertyPath: m_SpriteSheet.m_Sprites.Array.data[3].m_Edges.Array.size
    value: 0
    objectReference: {fileID: 0}
  - target: {fileID: 0}
    propertyPath: m_SpriteSheet.m_Sprites.Array.data[3].m_Weights.Array.size
    value: 0
    objectReference: {fileID: 0}
  - target: {fileID: 0}
    propertyPath: m_SpriteSheet.m_Sprites.Array.data[4].m_Name
    value: Char_atk_ground_combo_4
    objectReference: {fileID: 0}
  - target: {fileID: 0}
    propertyPath: m_SpriteSheet.m_Sprites.Array.data[4].m_Rect.x
    value: 1248
    objectReference: {fileID: 0}
  - target: {fileID: 0}
    propertyPath: m_SpriteSheet.m_Sprites.Array.data[4].m_Rect.y
    value: 0
    objectReference: {fileID: 0}
  - target: {fileID: 0}
    propertyPath: m_SpriteSheet.m_Sprites.Array.data[4].m_Rect.width
    value: 312
    objectReference: {fileID: 0}
  - target: {fileID: 0}
    propertyPath: m_SpriteSheet.m_Sprites.Array.data[4].m_Rect.height
    value: 170
    objectReference: {fileID: 0}
  - target: {fileID: 0}
    propertyPath: m_SpriteSheet.m_Sprites.Array.data[4].m_Alignment
    value: 0
    objectReference: {fileID: 0}
  - target: {fileID: 0}
    propertyPath: m_SpriteSheet.m_Sprites.Array.data[4].m_Pivot.x
    value: 0
    objectReference: {fileID: 0}
  - target: {fileID: 0}
    propertyPath: m_SpriteSheet.m_Sprites.Array.data[4].m_Pivot.y
    value: 0
    objectReference: {fileID: 0}
  - target: {fileID: 0}
    propertyPath: m_SpriteSheet.m_Sprites.Array.data[4].m_Border.x
    value: 0
    objectReference: {fileID: 0}
  - target: {fileID: 0}
    propertyPath: m_SpriteSheet.m_Sprites.Array.data[4].m_Border.y
    value: 0
    objectReference: {fileID: 0}
  - target: {fileID: 0}
    propertyPath: m_SpriteSheet.m_Sprites.Array.data[4].m_Border.z
    value: 0
    objectReference: {fileID: 0}
  - target: {fileID: 0}
    propertyPath: m_SpriteSheet.m_Sprites.Array.data[4].m_Border.w
    value: 0
    objectReference: {fileID: 0}
  - target: {fileID: 0}
    propertyPath: m_SpriteSheet.m_Sprites.Array.data[4].m_Outline.Array.size
    value: 0
    objectReference: {fileID: 0}
  - target: {fileID: 0}
    propertyPath: m_SpriteSheet.m_Sprites.Array.data[4].m_PhysicsShape.Array.size
    value: 0
    objectReference: {fileID: 0}
  - target: {fileID: 0}
    propertyPath: m_SpriteSheet.m_Sprites.Array.data[4].m_TessellationDetail
    value: 0
    objectReference: {fileID: 0}
  - target: {fileID: 0}
    propertyPath: m_SpriteSheet.m_Sprites.Array.data[4].m_Bones.Array.size
    value: 0
    objectReference: {fileID: 0}
  - target: {fileID: 0}
    propertyPath: m_SpriteSheet.m_Sprites.Array.data[4].m_SpriteID
    value: fdd1d8dfa39d66bf0800000000000000
    objectReference: {fileID: 0}
  - target: {fileID: 0}
    propertyPath: m_SpriteSheet.m_Sprites.Array.data[4].m_InternalID
    value: -331338675179938337
    objectReference: {fileID: 0}
  - target: {fileID: 0}
    propertyPath: m_SpriteSheet.m_Sprites.Array.data[4].m_Vertices.Array.size
    value: 0
    objectReference: {fileID: 0}
  - target: {fileID: 0}
    propertyPath: m_SpriteSheet.m_Sprites.Array.data[4].m_Indices.Array.size
    value: 0
    objectReference: {fileID: 0}
  - target: {fileID: 0}
    propertyPath: m_SpriteSheet.m_Sprites.Array.data[4].m_Edges.Array.size
    value: 0
    objectReference: {fileID: 0}
  - target: {fileID: 0}
    propertyPath: m_SpriteSheet.m_Sprites.Array.data[4].m_Weights.Array.size
    value: 0
    objectReference: {fileID: 0}
  - target: {fileID: 0}
    propertyPath: m_SpriteSheet.m_Sprites.Array.data[5].m_Name
    value: Char_atk_ground_combo_5
    objectReference: {fileID: 0}
  - target: {fileID: 0}
    propertyPath: m_SpriteSheet.m_Sprites.Array.data[5].m_Rect.x
    value: 1560
    objectReference: {fileID: 0}
  - target: {fileID: 0}
    propertyPath: m_SpriteSheet.m_Sprites.Array.data[5].m_Rect.y
    value: 0
    objectReference: {fileID: 0}
  - target: {fileID: 0}
    propertyPath: m_SpriteSheet.m_Sprites.Array.data[5].m_Rect.width
    value: 312
    objectReference: {fileID: 0}
  - target: {fileID: 0}
    propertyPath: m_SpriteSheet.m_Sprites.Array.data[5].m_Rect.height
    value: 170
    objectReference: {fileID: 0}
  - target: {fileID: 0}
    propertyPath: m_SpriteSheet.m_Sprites.Array.data[5].m_Alignment
    value: 0
    objectReference: {fileID: 0}
  - target: {fileID: 0}
    propertyPath: m_SpriteSheet.m_Sprites.Array.data[5].m_Pivot.x
    value: 0
    objectReference: {fileID: 0}
  - target: {fileID: 0}
    propertyPath: m_SpriteSheet.m_Sprites.Array.data[5].m_Pivot.y
    value: 0
    objectReference: {fileID: 0}
  - target: {fileID: 0}
    propertyPath: m_SpriteSheet.m_Sprites.Array.data[5].m_Border.x
    value: 0
    objectReference: {fileID: 0}
  - target: {fileID: 0}
    propertyPath: m_SpriteSheet.m_Sprites.Array.data[5].m_Border.y
    value: 0
    objectReference: {fileID: 0}
  - target: {fileID: 0}
    propertyPath: m_SpriteSheet.m_Sprites.Array.data[5].m_Border.z
    value: 0
    objectReference: {fileID: 0}
  - target: {fileID: 0}
    propertyPath: m_SpriteSheet.m_Sprites.Array.data[5].m_Border.w
    value: 0
    objectReference: {fileID: 0}
  - target: {fileID: 0}
    propertyPath: m_SpriteSheet.m_Sprites.Array.data[5].m_Outline.Array.size
    value: 0
    objectReference: {fileID: 0}
  - target: {fileID: 0}
    propertyPath: m_SpriteSheet.m_Sprites.Array.data[5].m_PhysicsShape.Array.size
    value: 0
    objectReference: {fileID: 0}
  - target: {fileID: 0}
    propertyPath: m_SpriteSheet.m_Sprites.Array.data[5].m_TessellationDetail
    value: 0
    objectReference: {fileID: 0}
  - target: {fileID: 0}
    propertyPath: m_SpriteSheet.m_Sprites.Array.data[5].m_Bones.Array.size
    value: 0
    objectReference: {fileID: 0}
  - target: {fileID: 0}
    propertyPath: m_SpriteSheet.m_Sprites.Array.data[5].m_SpriteID
    value: 8f5a18276169b2890800000000000000
    objectReference: {fileID: 0}
  - target: {fileID: 0}
    propertyPath: m_SpriteSheet.m_Sprites.Array.data[5].m_InternalID
    value: -7481721332791400968
    objectReference: {fileID: 0}
  - target: {fileID: 0}
    propertyPath: m_SpriteSheet.m_Sprites.Array.data[5].m_Vertices.Array.size
    value: 0
    objectReference: {fileID: 0}
  - target: {fileID: 0}
    propertyPath: m_SpriteSheet.m_Sprites.Array.data[5].m_Indices.Array.size
    value: 0
    objectReference: {fileID: 0}
  - target: {fileID: 0}
    propertyPath: m_SpriteSheet.m_Sprites.Array.data[5].m_Edges.Array.size
    value: 0
    objectReference: {fileID: 0}
  - target: {fileID: 0}
    propertyPath: m_SpriteSheet.m_Sprites.Array.data[5].m_Weights.Array.size
    value: 0
    objectReference: {fileID: 0}
  - target: {fileID: 0}
    propertyPath: m_SpriteSheet.m_Sprites.Array.data[6].m_Name
    value: Char_atk_ground_combo_6
    objectReference: {fileID: 0}
  - target: {fileID: 0}
    propertyPath: m_SpriteSheet.m_Sprites.Array.data[6].m_Rect.x
    value: 1872
    objectReference: {fileID: 0}
  - target: {fileID: 0}
    propertyPath: m_SpriteSheet.m_Sprites.Array.data[6].m_Rect.y
    value: 0
    objectReference: {fileID: 0}
  - target: {fileID: 0}
    propertyPath: m_SpriteSheet.m_Sprites.Array.data[6].m_Rect.width
    value: 312
    objectReference: {fileID: 0}
  - target: {fileID: 0}
    propertyPath: m_SpriteSheet.m_Sprites.Array.data[6].m_Rect.height
    value: 170
    objectReference: {fileID: 0}
  - target: {fileID: 0}
    propertyPath: m_SpriteSheet.m_Sprites.Array.data[6].m_Alignment
    value: 0
    objectReference: {fileID: 0}
  - target: {fileID: 0}
    propertyPath: m_SpriteSheet.m_Sprites.Array.data[6].m_Pivot.x
    value: 0
    objectReference: {fileID: 0}
  - target: {fileID: 0}
    propertyPath: m_SpriteSheet.m_Sprites.Array.data[6].m_Pivot.y
    value: 0
    objectReference: {fileID: 0}
  - target: {fileID: 0}
    propertyPath: m_SpriteSheet.m_Sprites.Array.data[6].m_Border.x
    value: 0
    objectReference: {fileID: 0}
  - target: {fileID: 0}
    propertyPath: m_SpriteSheet.m_Sprites.Array.data[6].m_Border.y
    value: 0
    objectReference: {fileID: 0}
  - target: {fileID: 0}
    propertyPath: m_SpriteSheet.m_Sprites.Array.data[6].m_Border.z
    value: 0
    objectReference: {fileID: 0}
  - target: {fileID: 0}
    propertyPath: m_SpriteSheet.m_Sprites.Array.data[6].m_Border.w
    value: 0
    objectReference: {fileID: 0}
  - target: {fileID: 0}
    propertyPath: m_SpriteSheet.m_Sprites.Array.data[6].m_Outline.Array.size
    value: 0
    objectReference: {fileID: 0}
  - target: {fileID: 0}
    propertyPath: m_SpriteSheet.m_Sprites.Array.data[6].m_PhysicsShape.Array.size
    value: 0
    objectReference: {fileID: 0}
  - target: {fileID: 0}
    propertyPath: m_SpriteSheet.m_Sprites.Array.data[6].m_TessellationDetail
    value: 0
    objectReference: {fileID: 0}
  - target: {fileID: 0}
    propertyPath: m_SpriteSheet.m_Sprites.Array.data[6].m_Bones.Array.size
    value: 0
    objectReference: {fileID: 0}
  - target: {fileID: 0}
    propertyPath: m_SpriteSheet.m_Sprites.Array.data[6].m_SpriteID
    value: d83bd8a3c06ea5b50800000000000000
    objectReference: {fileID: 0}
  - target: {fileID: 0}
    propertyPath: m_SpriteSheet.m_Sprites.Array.data[6].m_InternalID
    value: 6582826745551762317
    objectReference: {fileID: 0}
  - target: {fileID: 0}
    propertyPath: m_SpriteSheet.m_Sprites.Array.data[6].m_Vertices.Array.size
    value: 0
    objectReference: {fileID: 0}
  - target: {fileID: 0}
    propertyPath: m_SpriteSheet.m_Sprites.Array.data[6].m_Indices.Array.size
    value: 0
    objectReference: {fileID: 0}
  - target: {fileID: 0}
    propertyPath: m_SpriteSheet.m_Sprites.Array.data[6].m_Edges.Array.size
    value: 0
    objectReference: {fileID: 0}
  - target: {fileID: 0}
    propertyPath: m_SpriteSheet.m_Sprites.Array.data[6].m_Weights.Array.size
    value: 0
    objectReference: {fileID: 0}
  - target: {fileID: 0}
    propertyPath: m_SpriteSheet.m_Sprites.Array.data[7].m_Name
    value: Char_atk_ground_combo_7
    objectReference: {fileID: 0}
  - target: {fileID: 0}
    propertyPath: m_SpriteSheet.m_Sprites.Array.data[7].m_Rect.x
    value: 2184
    objectReference: {fileID: 0}
  - target: {fileID: 0}
    propertyPath: m_SpriteSheet.m_Sprites.Array.data[7].m_Rect.y
    value: 0
    objectReference: {fileID: 0}
  - target: {fileID: 0}
    propertyPath: m_SpriteSheet.m_Sprites.Array.data[7].m_Rect.width
    value: 312
    objectReference: {fileID: 0}
  - target: {fileID: 0}
    propertyPath: m_SpriteSheet.m_Sprites.Array.data[7].m_Rect.height
    value: 170
    objectReference: {fileID: 0}
  - target: {fileID: 0}
    propertyPath: m_SpriteSheet.m_Sprites.Array.data[7].m_Alignment
    value: 0
    objectReference: {fileID: 0}
  - target: {fileID: 0}
    propertyPath: m_SpriteSheet.m_Sprites.Array.data[7].m_Pivot.x
    value: 0
    objectReference: {fileID: 0}
  - target: {fileID: 0}
    propertyPath: m_SpriteSheet.m_Sprites.Array.data[7].m_Pivot.y
    value: 0
    objectReference: {fileID: 0}
  - target: {fileID: 0}
    propertyPath: m_SpriteSheet.m_Sprites.Array.data[7].m_Border.x
    value: 0
    objectReference: {fileID: 0}
  - target: {fileID: 0}
    propertyPath: m_SpriteSheet.m_Sprites.Array.data[7].m_Border.y
    value: 0
    objectReference: {fileID: 0}
  - target: {fileID: 0}
    propertyPath: m_SpriteSheet.m_Sprites.Array.data[7].m_Border.z
    value: 0
    objectReference: {fileID: 0}
  - target: {fileID: 0}
    propertyPath: m_SpriteSheet.m_Sprites.Array.data[7].m_Border.w
    value: 0
    objectReference: {fileID: 0}
  - target: {fileID: 0}
    propertyPath: m_SpriteSheet.m_Sprites.Array.data[7].m_Outline.Array.size
    value: 0
    objectReference: {fileID: 0}
  - target: {fileID: 0}
    propertyPath: m_SpriteSheet.m_Sprites.Array.data[7].m_PhysicsShape.Array.size
    value: 0
    objectReference: {fileID: 0}
  - target: {fileID: 0}
    propertyPath: m_SpriteSheet.m_Sprites.Array.data[7].m_TessellationDetail
    value: 0
    objectReference: {fileID: 0}
  - target: {fileID: 0}
    propertyPath: m_SpriteSheet.m_Sprites.Array.data[7].m_Bones.Array.size
    value: 0
    objectReference: {fileID: 0}
  - target: {fileID: 0}
    propertyPath: m_SpriteSheet.m_Sprites.Array.data[7].m_SpriteID
    value: fa454132657d54c50800000000000000
    objectReference: {fileID: 0}
  - target: {fileID: 0}
    propertyPath: m_SpriteSheet.m_Sprites.Array.data[7].m_InternalID
    value: 6648957189838099631
    objectReference: {fileID: 0}
  - target: {fileID: 0}
    propertyPath: m_SpriteSheet.m_Sprites.Array.data[7].m_Vertices.Array.size
    value: 0
    objectReference: {fileID: 0}
  - target: {fileID: 0}
    propertyPath: m_SpriteSheet.m_Sprites.Array.data[7].m_Indices.Array.size
    value: 0
    objectReference: {fileID: 0}
  - target: {fileID: 0}
    propertyPath: m_SpriteSheet.m_Sprites.Array.data[7].m_Edges.Array.size
    value: 0
    objectReference: {fileID: 0}
  - target: {fileID: 0}
    propertyPath: m_SpriteSheet.m_Sprites.Array.data[7].m_Weights.Array.size
    value: 0
    objectReference: {fileID: 0}
  - target: {fileID: 0}
    propertyPath: m_SpriteSheet.m_Sprites.Array.data[8].m_Name
    value: Char_atk_ground_combo_8
    objectReference: {fileID: 0}
  - target: {fileID: 0}
    propertyPath: m_SpriteSheet.m_Sprites.Array.data[8].m_Rect.x
    value: 2496
    objectReference: {fileID: 0}
  - target: {fileID: 0}
    propertyPath: m_SpriteSheet.m_Sprites.Array.data[8].m_Rect.y
    value: 0
    objectReference: {fileID: 0}
  - target: {fileID: 0}
    propertyPath: m_SpriteSheet.m_Sprites.Array.data[8].m_Rect.width
    value: 312
    objectReference: {fileID: 0}
  - target: {fileID: 0}
    propertyPath: m_SpriteSheet.m_Sprites.Array.data[8].m_Rect.height
    value: 170
    objectReference: {fileID: 0}
  - target: {fileID: 0}
    propertyPath: m_SpriteSheet.m_Sprites.Array.data[8].m_Alignment
    value: 0
    objectReference: {fileID: 0}
  - target: {fileID: 0}
    propertyPath: m_SpriteSheet.m_Sprites.Array.data[8].m_Pivot.x
    value: 0
    objectReference: {fileID: 0}
  - target: {fileID: 0}
    propertyPath: m_SpriteSheet.m_Sprites.Array.data[8].m_Pivot.y
    value: 0
    objectReference: {fileID: 0}
  - target: {fileID: 0}
    propertyPath: m_SpriteSheet.m_Sprites.Array.data[8].m_Border.x
    value: 0
    objectReference: {fileID: 0}
  - target: {fileID: 0}
    propertyPath: m_SpriteSheet.m_Sprites.Array.data[8].m_Border.y
    value: 0
    objectReference: {fileID: 0}
  - target: {fileID: 0}
    propertyPath: m_SpriteSheet.m_Sprites.Array.data[8].m_Border.z
    value: 0
    objectReference: {fileID: 0}
  - target: {fileID: 0}
    propertyPath: m_SpriteSheet.m_Sprites.Array.data[8].m_Border.w
    value: 0
    objectReference: {fileID: 0}
  - target: {fileID: 0}
    propertyPath: m_SpriteSheet.m_Sprites.Array.data[8].m_Outline.Array.size
    value: 0
    objectReference: {fileID: 0}
  - target: {fileID: 0}
    propertyPath: m_SpriteSheet.m_Sprites.Array.data[8].m_PhysicsShape.Array.size
    value: 0
    objectReference: {fileID: 0}
  - target: {fileID: 0}
    propertyPath: m_SpriteSheet.m_Sprites.Array.data[8].m_TessellationDetail
    value: 0
    objectReference: {fileID: 0}
  - target: {fileID: 0}
    propertyPath: m_SpriteSheet.m_Sprites.Array.data[8].m_Bones.Array.size
    value: 0
    objectReference: {fileID: 0}
  - target: {fileID: 0}
    propertyPath: m_SpriteSheet.m_Sprites.Array.data[8].m_SpriteID
    value: e7e428f2dca8da100800000000000000
    objectReference: {fileID: 0}
  - target: {fileID: 0}
    propertyPath: m_SpriteSheet.m_Sprites.Array.data[8].m_InternalID
    value: 120905378878869118
    objectReference: {fileID: 0}
  - target: {fileID: 0}
    propertyPath: m_SpriteSheet.m_Sprites.Array.data[8].m_Vertices.Array.size
    value: 0
    objectReference: {fileID: 0}
  - target: {fileID: 0}
    propertyPath: m_SpriteSheet.m_Sprites.Array.data[8].m_Indices.Array.size
    value: 0
    objectReference: {fileID: 0}
  - target: {fileID: 0}
    propertyPath: m_SpriteSheet.m_Sprites.Array.data[8].m_Edges.Array.size
    value: 0
    objectReference: {fileID: 0}
  - target: {fileID: 0}
    propertyPath: m_SpriteSheet.m_Sprites.Array.data[8].m_Weights.Array.size
    value: 0
    objectReference: {fileID: 0}
  - target: {fileID: 0}
    propertyPath: m_SpriteSheet.m_Sprites.Array.data[9].m_Name
    value: Char_atk_ground_combo_9
    objectReference: {fileID: 0}
  - target: {fileID: 0}
    propertyPath: m_SpriteSheet.m_Sprites.Array.data[9].m_Rect.x
    value: 2808
    objectReference: {fileID: 0}
  - target: {fileID: 0}
    propertyPath: m_SpriteSheet.m_Sprites.Array.data[9].m_Rect.y
    value: 0
    objectReference: {fileID: 0}
  - target: {fileID: 0}
    propertyPath: m_SpriteSheet.m_Sprites.Array.data[9].m_Rect.width
    value: 312
    objectReference: {fileID: 0}
  - target: {fileID: 0}
    propertyPath: m_SpriteSheet.m_Sprites.Array.data[9].m_Rect.height
    value: 170
    objectReference: {fileID: 0}
  - target: {fileID: 0}
    propertyPath: m_SpriteSheet.m_Sprites.Array.data[9].m_Alignment
    value: 0
    objectReference: {fileID: 0}
  - target: {fileID: 0}
    propertyPath: m_SpriteSheet.m_Sprites.Array.data[9].m_Pivot.x
    value: 0
    objectReference: {fileID: 0}
  - target: {fileID: 0}
    propertyPath: m_SpriteSheet.m_Sprites.Array.data[9].m_Pivot.y
    value: 0
    objectReference: {fileID: 0}
  - target: {fileID: 0}
    propertyPath: m_SpriteSheet.m_Sprites.Array.data[9].m_Border.x
    value: 0
    objectReference: {fileID: 0}
  - target: {fileID: 0}
    propertyPath: m_SpriteSheet.m_Sprites.Array.data[9].m_Border.y
    value: 0
    objectReference: {fileID: 0}
  - target: {fileID: 0}
    propertyPath: m_SpriteSheet.m_Sprites.Array.data[9].m_Border.z
    value: 0
    objectReference: {fileID: 0}
  - target: {fileID: 0}
    propertyPath: m_SpriteSheet.m_Sprites.Array.data[9].m_Border.w
    value: 0
    objectReference: {fileID: 0}
  - target: {fileID: 0}
    propertyPath: m_SpriteSheet.m_Sprites.Array.data[9].m_Outline.Array.size
    value: 0
    objectReference: {fileID: 0}
  - target: {fileID: 0}
    propertyPath: m_SpriteSheet.m_Sprites.Array.data[9].m_PhysicsShape.Array.size
    value: 0
    objectReference: {fileID: 0}
  - target: {fileID: 0}
    propertyPath: m_SpriteSheet.m_Sprites.Array.data[9].m_TessellationDetail
    value: 0
    objectReference: {fileID: 0}
  - target: {fileID: 0}
    propertyPath: m_SpriteSheet.m_Sprites.Array.data[9].m_Bones.Array.size
    value: 0
    objectReference: {fileID: 0}
  - target: {fileID: 0}
    propertyPath: m_SpriteSheet.m_Sprites.Array.data[9].m_SpriteID
    value: 72ef7ee09b8567fe0800000000000000
    objectReference: {fileID: 0}
  - target: {fileID: 0}
    propertyPath: m_SpriteSheet.m_Sprites.Array.data[9].m_InternalID
    value: -1191667499550638553
    objectReference: {fileID: 0}
  - target: {fileID: 0}
    propertyPath: m_SpriteSheet.m_Sprites.Array.data[9].m_Vertices.Array.size
    value: 0
    objectReference: {fileID: 0}
  - target: {fileID: 0}
    propertyPath: m_SpriteSheet.m_Sprites.Array.data[9].m_Indices.Array.size
    value: 0
    objectReference: {fileID: 0}
  - target: {fileID: 0}
    propertyPath: m_SpriteSheet.m_Sprites.Array.data[9].m_Edges.Array.size
    value: 0
    objectReference: {fileID: 0}
  - target: {fileID: 0}
    propertyPath: m_SpriteSheet.m_Sprites.Array.data[9].m_Weights.Array.size
    value: 0
    objectReference: {fileID: 0}
  - target: {fileID: 0}
    propertyPath: m_SpriteSheet.m_Sprites.Array.data[10].m_Name
    value: Char_atk_ground_combo_10
    objectReference: {fileID: 0}
  - target: {fileID: 0}
    propertyPath: m_SpriteSheet.m_Sprites.Array.data[10].m_Rect.x
    value: 3120
    objectReference: {fileID: 0}
  - target: {fileID: 0}
    propertyPath: m_SpriteSheet.m_Sprites.Array.data[10].m_Rect.y
    value: 0
    objectReference: {fileID: 0}
  - target: {fileID: 0}
    propertyPath: m_SpriteSheet.m_Sprites.Array.data[10].m_Rect.width
    value: 312
    objectReference: {fileID: 0}
  - target: {fileID: 0}
    propertyPath: m_SpriteSheet.m_Sprites.Array.data[10].m_Rect.height
    value: 170
    objectReference: {fileID: 0}
  - target: {fileID: 0}
    propertyPath: m_SpriteSheet.m_Sprites.Array.data[10].m_Alignment
    value: 0
    objectReference: {fileID: 0}
  - target: {fileID: 0}
    propertyPath: m_SpriteSheet.m_Sprites.Array.data[10].m_Pivot.x
    value: 0
    objectReference: {fileID: 0}
  - target: {fileID: 0}
    propertyPath: m_SpriteSheet.m_Sprites.Array.data[10].m_Pivot.y
    value: 0
    objectReference: {fileID: 0}
  - target: {fileID: 0}
    propertyPath: m_SpriteSheet.m_Sprites.Array.data[10].m_Border.x
    value: 0
    objectReference: {fileID: 0}
  - target: {fileID: 0}
    propertyPath: m_SpriteSheet.m_Sprites.Array.data[10].m_Border.y
    value: 0
    objectReference: {fileID: 0}
  - target: {fileID: 0}
    propertyPath: m_SpriteSheet.m_Sprites.Array.data[10].m_Border.z
    value: 0
    objectReference: {fileID: 0}
  - target: {fileID: 0}
    propertyPath: m_SpriteSheet.m_Sprites.Array.data[10].m_Border.w
    value: 0
    objectReference: {fileID: 0}
  - target: {fileID: 0}
    propertyPath: m_SpriteSheet.m_Sprites.Array.data[10].m_Outline.Array.size
    value: 0
    objectReference: {fileID: 0}
  - target: {fileID: 0}
    propertyPath: m_SpriteSheet.m_Sprites.Array.data[10].m_PhysicsShape.Array.size
    value: 0
    objectReference: {fileID: 0}
  - target: {fileID: 0}
    propertyPath: m_SpriteSheet.m_Sprites.Array.data[10].m_TessellationDetail
    value: 0
    objectReference: {fileID: 0}
  - target: {fileID: 0}
    propertyPath: m_SpriteSheet.m_Sprites.Array.data[10].m_Bones.Array.size
    value: 0
    objectReference: {fileID: 0}
  - target: {fileID: 0}
    propertyPath: m_SpriteSheet.m_Sprites.Array.data[10].m_SpriteID
    value: b3f45ff6f21cdd4b0800000000000000
    objectReference: {fileID: 0}
  - target: {fileID: 0}
    propertyPath: m_SpriteSheet.m_Sprites.Array.data[10].m_InternalID
    value: -5413958767543496901
    objectReference: {fileID: 0}
  - target: {fileID: 0}
    propertyPath: m_SpriteSheet.m_Sprites.Array.data[10].m_Vertices.Array.size
    value: 0
    objectReference: {fileID: 0}
  - target: {fileID: 0}
    propertyPath: m_SpriteSheet.m_Sprites.Array.data[10].m_Indices.Array.size
    value: 0
    objectReference: {fileID: 0}
  - target: {fileID: 0}
    propertyPath: m_SpriteSheet.m_Sprites.Array.data[10].m_Edges.Array.size
    value: 0
    objectReference: {fileID: 0}
  - target: {fileID: 0}
    propertyPath: m_SpriteSheet.m_Sprites.Array.data[10].m_Weights.Array.size
    value: 0
    objectReference: {fileID: 0}
  - target: {fileID: 0}
    propertyPath: m_SpriteSheet.m_Sprites.Array.data[11].m_Name
    value: Char_atk_ground_combo_11
    objectReference: {fileID: 0}
  - target: {fileID: 0}
    propertyPath: m_SpriteSheet.m_Sprites.Array.data[11].m_Rect.x
    value: 3432
    objectReference: {fileID: 0}
  - target: {fileID: 0}
    propertyPath: m_SpriteSheet.m_Sprites.Array.data[11].m_Rect.y
    value: 0
    objectReference: {fileID: 0}
  - target: {fileID: 0}
    propertyPath: m_SpriteSheet.m_Sprites.Array.data[11].m_Rect.width
    value: 312
    objectReference: {fileID: 0}
  - target: {fileID: 0}
    propertyPath: m_SpriteSheet.m_Sprites.Array.data[11].m_Rect.height
    value: 170
    objectReference: {fileID: 0}
  - target: {fileID: 0}
    propertyPath: m_SpriteSheet.m_Sprites.Array.data[11].m_Alignment
    value: 0
    objectReference: {fileID: 0}
  - target: {fileID: 0}
    propertyPath: m_SpriteSheet.m_Sprites.Array.data[11].m_Pivot.x
    value: 0
    objectReference: {fileID: 0}
  - target: {fileID: 0}
    propertyPath: m_SpriteSheet.m_Sprites.Array.data[11].m_Pivot.y
    value: 0
    objectReference: {fileID: 0}
  - target: {fileID: 0}
    propertyPath: m_SpriteSheet.m_Sprites.Array.data[11].m_Border.x
    value: 0
    objectReference: {fileID: 0}
  - target: {fileID: 0}
    propertyPath: m_SpriteSheet.m_Sprites.Array.data[11].m_Border.y
    value: 0
    objectReference: {fileID: 0}
  - target: {fileID: 0}
    propertyPath: m_SpriteSheet.m_Sprites.Array.data[11].m_Border.z
    value: 0
    objectReference: {fileID: 0}
  - target: {fileID: 0}
    propertyPath: m_SpriteSheet.m_Sprites.Array.data[11].m_Border.w
    value: 0
    objectReference: {fileID: 0}
  - target: {fileID: 0}
    propertyPath: m_SpriteSheet.m_Sprites.Array.data[11].m_Outline.Array.size
    value: 0
    objectReference: {fileID: 0}
  - target: {fileID: 0}
    propertyPath: m_SpriteSheet.m_Sprites.Array.data[11].m_PhysicsShape.Array.size
    value: 0
    objectReference: {fileID: 0}
  - target: {fileID: 0}
    propertyPath: m_SpriteSheet.m_Sprites.Array.data[11].m_TessellationDetail
    value: 0
    objectReference: {fileID: 0}
  - target: {fileID: 0}
    propertyPath: m_SpriteSheet.m_Sprites.Array.data[11].m_Bones.Array.size
    value: 0
    objectReference: {fileID: 0}
  - target: {fileID: 0}
    propertyPath: m_SpriteSheet.m_Sprites.Array.data[11].m_SpriteID
    value: b0ad993ce70f85b40800000000000000
    objectReference: {fileID: 0}
  - target: {fileID: 0}
    propertyPath: m_SpriteSheet.m_Sprites.Array.data[11].m_InternalID
    value: 5429353778033318411
    objectReference: {fileID: 0}
  - target: {fileID: 0}
    propertyPath: m_SpriteSheet.m_Sprites.Array.data[11].m_Vertices.Array.size
    value: 0
    objectReference: {fileID: 0}
  - target: {fileID: 0}
    propertyPath: m_SpriteSheet.m_Sprites.Array.data[11].m_Indices.Array.size
    value: 0
    objectReference: {fileID: 0}
  - target: {fileID: 0}
    propertyPath: m_SpriteSheet.m_Sprites.Array.data[11].m_Edges.Array.size
    value: 0
    objectReference: {fileID: 0}
  - target: {fileID: 0}
    propertyPath: m_SpriteSheet.m_Sprites.Array.data[11].m_Weights.Array.size
    value: 0
    objectReference: {fileID: 0}
  - target: {fileID: 0}
    propertyPath: m_SpriteSheet.m_Sprites.Array.data[12].m_Name
    value: Char_atk_ground_combo_12
    objectReference: {fileID: 0}
  - target: {fileID: 0}
    propertyPath: m_SpriteSheet.m_Sprites.Array.data[12].m_Rect.x
    value: 3744
    objectReference: {fileID: 0}
  - target: {fileID: 0}
    propertyPath: m_SpriteSheet.m_Sprites.Array.data[12].m_Rect.y
    value: 0
    objectReference: {fileID: 0}
  - target: {fileID: 0}
    propertyPath: m_SpriteSheet.m_Sprites.Array.data[12].m_Rect.width
    value: 312
    objectReference: {fileID: 0}
  - target: {fileID: 0}
    propertyPath: m_SpriteSheet.m_Sprites.Array.data[12].m_Rect.height
    value: 170
    objectReference: {fileID: 0}
  - target: {fileID: 0}
    propertyPath: m_SpriteSheet.m_Sprites.Array.data[12].m_Alignment
    value: 0
    objectReference: {fileID: 0}
  - target: {fileID: 0}
    propertyPath: m_SpriteSheet.m_Sprites.Array.data[12].m_Pivot.x
    value: 0
    objectReference: {fileID: 0}
  - target: {fileID: 0}
    propertyPath: m_SpriteSheet.m_Sprites.Array.data[12].m_Pivot.y
    value: 0
    objectReference: {fileID: 0}
  - target: {fileID: 0}
    propertyPath: m_SpriteSheet.m_Sprites.Array.data[12].m_Border.x
    value: 0
    objectReference: {fileID: 0}
  - target: {fileID: 0}
    propertyPath: m_SpriteSheet.m_Sprites.Array.data[12].m_Border.y
    value: 0
    objectReference: {fileID: 0}
  - target: {fileID: 0}
    propertyPath: m_SpriteSheet.m_Sprites.Array.data[12].m_Border.z
    value: 0
    objectReference: {fileID: 0}
  - target: {fileID: 0}
    propertyPath: m_SpriteSheet.m_Sprites.Array.data[12].m_Border.w
    value: 0
    objectReference: {fileID: 0}
  - target: {fileID: 0}
    propertyPath: m_SpriteSheet.m_Sprites.Array.data[12].m_Outline.Array.size
    value: 0
    objectReference: {fileID: 0}
  - target: {fileID: 0}
    propertyPath: m_SpriteSheet.m_Sprites.Array.data[12].m_PhysicsShape.Array.size
    value: 0
    objectReference: {fileID: 0}
  - target: {fileID: 0}
    propertyPath: m_SpriteSheet.m_Sprites.Array.data[12].m_TessellationDetail
    value: 0
    objectReference: {fileID: 0}
  - target: {fileID: 0}
    propertyPath: m_SpriteSheet.m_Sprites.Array.data[12].m_Bones.Array.size
    value: 0
    objectReference: {fileID: 0}
  - target: {fileID: 0}
    propertyPath: m_SpriteSheet.m_Sprites.Array.data[12].m_SpriteID
    value: f96472f43cee42000800000000000000
    objectReference: {fileID: 0}
  - target: {fileID: 0}
    propertyPath: m_SpriteSheet.m_Sprites.Array.data[12].m_InternalID
    value: 10395621775591071
    objectReference: {fileID: 0}
  - target: {fileID: 0}
    propertyPath: m_SpriteSheet.m_Sprites.Array.data[12].m_Vertices.Array.size
    value: 0
    objectReference: {fileID: 0}
  - target: {fileID: 0}
    propertyPath: m_SpriteSheet.m_Sprites.Array.data[12].m_Indices.Array.size
    value: 0
    objectReference: {fileID: 0}
  - target: {fileID: 0}
    propertyPath: m_SpriteSheet.m_Sprites.Array.data[12].m_Edges.Array.size
    value: 0
    objectReference: {fileID: 0}
  - target: {fileID: 0}
    propertyPath: m_SpriteSheet.m_Sprites.Array.data[12].m_Weights.Array.size
    value: 0
    objectReference: {fileID: 0}
  - target: {fileID: 0}
    propertyPath: m_SpriteSheet.m_Sprites.Array.data[13].m_Name
    value: Char_atk_ground_combo_13
    objectReference: {fileID: 0}
  - target: {fileID: 0}
    propertyPath: m_SpriteSheet.m_Sprites.Array.data[13].m_Rect.x
    value: 4056
    objectReference: {fileID: 0}
  - target: {fileID: 0}
    propertyPath: m_SpriteSheet.m_Sprites.Array.data[13].m_Rect.y
    value: 0
    objectReference: {fileID: 0}
  - target: {fileID: 0}
    propertyPath: m_SpriteSheet.m_Sprites.Array.data[13].m_Rect.width
    value: 312
    objectReference: {fileID: 0}
  - target: {fileID: 0}
    propertyPath: m_SpriteSheet.m_Sprites.Array.data[13].m_Rect.height
    value: 170
    objectReference: {fileID: 0}
  - target: {fileID: 0}
    propertyPath: m_SpriteSheet.m_Sprites.Array.data[13].m_Alignment
    value: 0
    objectReference: {fileID: 0}
  - target: {fileID: 0}
    propertyPath: m_SpriteSheet.m_Sprites.Array.data[13].m_Pivot.x
    value: 0
    objectReference: {fileID: 0}
  - target: {fileID: 0}
    propertyPath: m_SpriteSheet.m_Sprites.Array.data[13].m_Pivot.y
    value: 0
    objectReference: {fileID: 0}
  - target: {fileID: 0}
    propertyPath: m_SpriteSheet.m_Sprites.Array.data[13].m_Border.x
    value: 0
    objectReference: {fileID: 0}
  - target: {fileID: 0}
    propertyPath: m_SpriteSheet.m_Sprites.Array.data[13].m_Border.y
    value: 0
    objectReference: {fileID: 0}
  - target: {fileID: 0}
    propertyPath: m_SpriteSheet.m_Sprites.Array.data[13].m_Border.z
    value: 0
    objectReference: {fileID: 0}
  - target: {fileID: 0}
    propertyPath: m_SpriteSheet.m_Sprites.Array.data[13].m_Border.w
    value: 0
    objectReference: {fileID: 0}
  - target: {fileID: 0}
    propertyPath: m_SpriteSheet.m_Sprites.Array.data[13].m_Outline.Array.size
    value: 0
    objectReference: {fileID: 0}
  - target: {fileID: 0}
    propertyPath: m_SpriteSheet.m_Sprites.Array.data[13].m_PhysicsShape.Array.size
    value: 0
    objectReference: {fileID: 0}
  - target: {fileID: 0}
    propertyPath: m_SpriteSheet.m_Sprites.Array.data[13].m_TessellationDetail
    value: 0
    objectReference: {fileID: 0}
  - target: {fileID: 0}
    propertyPath: m_SpriteSheet.m_Sprites.Array.data[13].m_Bones.Array.size
    value: 0
    objectReference: {fileID: 0}
  - target: {fileID: 0}
    propertyPath: m_SpriteSheet.m_Sprites.Array.data[13].m_SpriteID
    value: 71321aa2355a617d0800000000000000
    objectReference: {fileID: 0}
  - target: {fileID: 0}
    propertyPath: m_SpriteSheet.m_Sprites.Array.data[13].m_InternalID
    value: -2947987129451338985
    objectReference: {fileID: 0}
  - target: {fileID: 0}
    propertyPath: m_SpriteSheet.m_Sprites.Array.data[13].m_Vertices.Array.size
    value: 0
    objectReference: {fileID: 0}
  - target: {fileID: 0}
    propertyPath: m_SpriteSheet.m_Sprites.Array.data[13].m_Indices.Array.size
    value: 0
    objectReference: {fileID: 0}
  - target: {fileID: 0}
    propertyPath: m_SpriteSheet.m_Sprites.Array.data[13].m_Edges.Array.size
    value: 0
    objectReference: {fileID: 0}
  - target: {fileID: 0}
    propertyPath: m_SpriteSheet.m_Sprites.Array.data[13].m_Weights.Array.size
    value: 0
    objectReference: {fileID: 0}
  - target: {fileID: 0}
    propertyPath: m_SpriteSheet.m_Sprites.Array.data[14].m_Name
    value: Char_atk_ground_combo_14
    objectReference: {fileID: 0}
  - target: {fileID: 0}
    propertyPath: m_SpriteSheet.m_Sprites.Array.data[14].m_Rect.x
    value: 4368
    objectReference: {fileID: 0}
  - target: {fileID: 0}
    propertyPath: m_SpriteSheet.m_Sprites.Array.data[14].m_Rect.y
    value: 0
    objectReference: {fileID: 0}
  - target: {fileID: 0}
    propertyPath: m_SpriteSheet.m_Sprites.Array.data[14].m_Rect.width
    value: 312
    objectReference: {fileID: 0}
  - target: {fileID: 0}
    propertyPath: m_SpriteSheet.m_Sprites.Array.data[14].m_Rect.height
    value: 170
    objectReference: {fileID: 0}
  - target: {fileID: 0}
    propertyPath: m_SpriteSheet.m_Sprites.Array.data[14].m_Alignment
    value: 0
    objectReference: {fileID: 0}
  - target: {fileID: 0}
    propertyPath: m_SpriteSheet.m_Sprites.Array.data[14].m_Pivot.x
    value: 0
    objectReference: {fileID: 0}
  - target: {fileID: 0}
    propertyPath: m_SpriteSheet.m_Sprites.Array.data[14].m_Pivot.y
    value: 0
    objectReference: {fileID: 0}
  - target: {fileID: 0}
    propertyPath: m_SpriteSheet.m_Sprites.Array.data[14].m_Border.x
    value: 0
    objectReference: {fileID: 0}
  - target: {fileID: 0}
    propertyPath: m_SpriteSheet.m_Sprites.Array.data[14].m_Border.y
    value: 0
    objectReference: {fileID: 0}
  - target: {fileID: 0}
    propertyPath: m_SpriteSheet.m_Sprites.Array.data[14].m_Border.z
    value: 0
    objectReference: {fileID: 0}
  - target: {fileID: 0}
    propertyPath: m_SpriteSheet.m_Sprites.Array.data[14].m_Border.w
    value: 0
    objectReference: {fileID: 0}
  - target: {fileID: 0}
    propertyPath: m_SpriteSheet.m_Sprites.Array.data[14].m_Outline.Array.size
    value: 0
    objectReference: {fileID: 0}
  - target: {fileID: 0}
    propertyPath: m_SpriteSheet.m_Sprites.Array.data[14].m_PhysicsShape.Array.size
    value: 0
    objectReference: {fileID: 0}
  - target: {fileID: 0}
    propertyPath: m_SpriteSheet.m_Sprites.Array.data[14].m_TessellationDetail
    value: 0
    objectReference: {fileID: 0}
  - target: {fileID: 0}
    propertyPath: m_SpriteSheet.m_Sprites.Array.data[14].m_Bones.Array.size
    value: 0
    objectReference: {fileID: 0}
  - target: {fileID: 0}
    propertyPath: m_SpriteSheet.m_Sprites.Array.data[14].m_SpriteID
    value: 3b6ed28df32dca9a0800000000000000
    objectReference: {fileID: 0}
  - target: {fileID: 0}
    propertyPath: m_SpriteSheet.m_Sprites.Array.data[14].m_InternalID
    value: -6220365813653838157
    objectReference: {fileID: 0}
  - target: {fileID: 0}
    propertyPath: m_SpriteSheet.m_Sprites.Array.data[14].m_Vertices.Array.size
    value: 0
    objectReference: {fileID: 0}
  - target: {fileID: 0}
    propertyPath: m_SpriteSheet.m_Sprites.Array.data[14].m_Indices.Array.size
    value: 0
    objectReference: {fileID: 0}
  - target: {fileID: 0}
    propertyPath: m_SpriteSheet.m_Sprites.Array.data[14].m_Edges.Array.size
    value: 0
    objectReference: {fileID: 0}
  - target: {fileID: 0}
    propertyPath: m_SpriteSheet.m_Sprites.Array.data[14].m_Weights.Array.size
    value: 0
    objectReference: {fileID: 0}
  - target: {fileID: 0}
    propertyPath: m_SpriteSheet.m_Sprites.Array.data[15].m_Name
    value: Char_atk_ground_combo_15
    objectReference: {fileID: 0}
  - target: {fileID: 0}
    propertyPath: m_SpriteSheet.m_Sprites.Array.data[15].m_Rect.x
    value: 4680
    objectReference: {fileID: 0}
  - target: {fileID: 0}
    propertyPath: m_SpriteSheet.m_Sprites.Array.data[15].m_Rect.y
    value: 0
    objectReference: {fileID: 0}
  - target: {fileID: 0}
    propertyPath: m_SpriteSheet.m_Sprites.Array.data[15].m_Rect.width
    value: 312
    objectReference: {fileID: 0}
  - target: {fileID: 0}
    propertyPath: m_SpriteSheet.m_Sprites.Array.data[15].m_Rect.height
    value: 170
    objectReference: {fileID: 0}
  - target: {fileID: 0}
    propertyPath: m_SpriteSheet.m_Sprites.Array.data[15].m_Alignment
    value: 0
    objectReference: {fileID: 0}
  - target: {fileID: 0}
    propertyPath: m_SpriteSheet.m_Sprites.Array.data[15].m_Pivot.x
    value: 0
    objectReference: {fileID: 0}
  - target: {fileID: 0}
    propertyPath: m_SpriteSheet.m_Sprites.Array.data[15].m_Pivot.y
    value: 0
    objectReference: {fileID: 0}
  - target: {fileID: 0}
    propertyPath: m_SpriteSheet.m_Sprites.Array.data[15].m_Border.x
    value: 0
    objectReference: {fileID: 0}
  - target: {fileID: 0}
    propertyPath: m_SpriteSheet.m_Sprites.Array.data[15].m_Border.y
    value: 0
    objectReference: {fileID: 0}
  - target: {fileID: 0}
    propertyPath: m_SpriteSheet.m_Sprites.Array.data[15].m_Border.z
    value: 0
    objectReference: {fileID: 0}
  - target: {fileID: 0}
    propertyPath: m_SpriteSheet.m_Sprites.Array.data[15].m_Border.w
    value: 0
    objectReference: {fileID: 0}
  - target: {fileID: 0}
    propertyPath: m_SpriteSheet.m_Sprites.Array.data[15].m_Outline.Array.size
    value: 0
    objectReference: {fileID: 0}
  - target: {fileID: 0}
    propertyPath: m_SpriteSheet.m_Sprites.Array.data[15].m_PhysicsShape.Array.size
    value: 0
    objectReference: {fileID: 0}
  - target: {fileID: 0}
    propertyPath: m_SpriteSheet.m_Sprites.Array.data[15].m_TessellationDetail
    value: 0
    objectReference: {fileID: 0}
  - target: {fileID: 0}
    propertyPath: m_SpriteSheet.m_Sprites.Array.data[15].m_Bones.Array.size
    value: 0
    objectReference: {fileID: 0}
  - target: {fileID: 0}
    propertyPath: m_SpriteSheet.m_Sprites.Array.data[15].m_SpriteID
    value: 5279e1064801757a0800000000000000
    objectReference: {fileID: 0}
  - target: {fileID: 0}
    propertyPath: m_SpriteSheet.m_Sprites.Array.data[15].m_InternalID
    value: -6388619385667414235
    objectReference: {fileID: 0}
  - target: {fileID: 0}
    propertyPath: m_SpriteSheet.m_Sprites.Array.data[15].m_Vertices.Array.size
    value: 0
    objectReference: {fileID: 0}
  - target: {fileID: 0}
    propertyPath: m_SpriteSheet.m_Sprites.Array.data[15].m_Indices.Array.size
    value: 0
    objectReference: {fileID: 0}
  - target: {fileID: 0}
    propertyPath: m_SpriteSheet.m_Sprites.Array.data[15].m_Edges.Array.size
    value: 0
    objectReference: {fileID: 0}
  - target: {fileID: 0}
    propertyPath: m_SpriteSheet.m_Sprites.Array.data[15].m_Weights.Array.size
    value: 0
    objectReference: {fileID: 0}
  - target: {fileID: 0}
    propertyPath: m_SpriteSheet.m_Sprites.Array.data[16].m_Name
    value: Char_atk_ground_combo_16
    objectReference: {fileID: 0}
  - target: {fileID: 0}
    propertyPath: m_SpriteSheet.m_Sprites.Array.data[16].m_Rect.x
    value: 4992
    objectReference: {fileID: 0}
  - target: {fileID: 0}
    propertyPath: m_SpriteSheet.m_Sprites.Array.data[16].m_Rect.y
    value: 0
    objectReference: {fileID: 0}
  - target: {fileID: 0}
    propertyPath: m_SpriteSheet.m_Sprites.Array.data[16].m_Rect.width
    value: 312
    objectReference: {fileID: 0}
  - target: {fileID: 0}
    propertyPath: m_SpriteSheet.m_Sprites.Array.data[16].m_Rect.height
    value: 170
    objectReference: {fileID: 0}
  - target: {fileID: 0}
    propertyPath: m_SpriteSheet.m_Sprites.Array.data[16].m_Alignment
    value: 0
    objectReference: {fileID: 0}
  - target: {fileID: 0}
    propertyPath: m_SpriteSheet.m_Sprites.Array.data[16].m_Pivot.x
    value: 0
    objectReference: {fileID: 0}
  - target: {fileID: 0}
    propertyPath: m_SpriteSheet.m_Sprites.Array.data[16].m_Pivot.y
    value: 0
    objectReference: {fileID: 0}
  - target: {fileID: 0}
    propertyPath: m_SpriteSheet.m_Sprites.Array.data[16].m_Border.x
    value: 0
    objectReference: {fileID: 0}
  - target: {fileID: 0}
    propertyPath: m_SpriteSheet.m_Sprites.Array.data[16].m_Border.y
    value: 0
    objectReference: {fileID: 0}
  - target: {fileID: 0}
    propertyPath: m_SpriteSheet.m_Sprites.Array.data[16].m_Border.z
    value: 0
    objectReference: {fileID: 0}
  - target: {fileID: 0}
    propertyPath: m_SpriteSheet.m_Sprites.Array.data[16].m_Border.w
    value: 0
    objectReference: {fileID: 0}
  - target: {fileID: 0}
    propertyPath: m_SpriteSheet.m_Sprites.Array.data[16].m_Outline.Array.size
    value: 0
    objectReference: {fileID: 0}
  - target: {fileID: 0}
    propertyPath: m_SpriteSheet.m_Sprites.Array.data[16].m_PhysicsShape.Array.size
    value: 0
    objectReference: {fileID: 0}
  - target: {fileID: 0}
    propertyPath: m_SpriteSheet.m_Sprites.Array.data[16].m_TessellationDetail
    value: 0
    objectReference: {fileID: 0}
  - target: {fileID: 0}
    propertyPath: m_SpriteSheet.m_Sprites.Array.data[16].m_Bones.Array.size
    value: 0
    objectReference: {fileID: 0}
  - target: {fileID: 0}
    propertyPath: m_SpriteSheet.m_Sprites.Array.data[16].m_SpriteID
    value: ff4d22af290fd5770800000000000000
    objectReference: {fileID: 0}
  - target: {fileID: 0}
    propertyPath: m_SpriteSheet.m_Sprites.Array.data[16].m_InternalID
    value: 8601295377399993599
    objectReference: {fileID: 0}
  - target: {fileID: 0}
    propertyPath: m_SpriteSheet.m_Sprites.Array.data[16].m_Vertices.Array.size
    value: 0
    objectReference: {fileID: 0}
  - target: {fileID: 0}
    propertyPath: m_SpriteSheet.m_Sprites.Array.data[16].m_Indices.Array.size
    value: 0
    objectReference: {fileID: 0}
  - target: {fileID: 0}
    propertyPath: m_SpriteSheet.m_Sprites.Array.data[16].m_Edges.Array.size
    value: 0
    objectReference: {fileID: 0}
  - target: {fileID: 0}
    propertyPath: m_SpriteSheet.m_Sprites.Array.data[16].m_Weights.Array.size
    value: 0
    objectReference: {fileID: 0}
  - target: {fileID: 0}
    propertyPath: m_SpriteSheet.m_Sprites.Array.data[17].m_Name
    value: Char_atk_ground_combo_17
    objectReference: {fileID: 0}
  - target: {fileID: 0}
    propertyPath: m_SpriteSheet.m_Sprites.Array.data[17].m_Rect.x
    value: 5304
    objectReference: {fileID: 0}
  - target: {fileID: 0}
    propertyPath: m_SpriteSheet.m_Sprites.Array.data[17].m_Rect.y
    value: 0
    objectReference: {fileID: 0}
  - target: {fileID: 0}
    propertyPath: m_SpriteSheet.m_Sprites.Array.data[17].m_Rect.width
    value: 312
    objectReference: {fileID: 0}
  - target: {fileID: 0}
    propertyPath: m_SpriteSheet.m_Sprites.Array.data[17].m_Rect.height
    value: 170
    objectReference: {fileID: 0}
  - target: {fileID: 0}
    propertyPath: m_SpriteSheet.m_Sprites.Array.data[17].m_Alignment
    value: 0
    objectReference: {fileID: 0}
  - target: {fileID: 0}
    propertyPath: m_SpriteSheet.m_Sprites.Array.data[17].m_Pivot.x
    value: 0
    objectReference: {fileID: 0}
  - target: {fileID: 0}
    propertyPath: m_SpriteSheet.m_Sprites.Array.data[17].m_Pivot.y
    value: 0
    objectReference: {fileID: 0}
  - target: {fileID: 0}
    propertyPath: m_SpriteSheet.m_Sprites.Array.data[17].m_Border.x
    value: 0
    objectReference: {fileID: 0}
  - target: {fileID: 0}
    propertyPath: m_SpriteSheet.m_Sprites.Array.data[17].m_Border.y
    value: 0
    objectReference: {fileID: 0}
  - target: {fileID: 0}
    propertyPath: m_SpriteSheet.m_Sprites.Array.data[17].m_Border.z
    value: 0
    objectReference: {fileID: 0}
  - target: {fileID: 0}
    propertyPath: m_SpriteSheet.m_Sprites.Array.data[17].m_Border.w
    value: 0
    objectReference: {fileID: 0}
  - target: {fileID: 0}
    propertyPath: m_SpriteSheet.m_Sprites.Array.data[17].m_Outline.Array.size
    value: 0
    objectReference: {fileID: 0}
  - target: {fileID: 0}
    propertyPath: m_SpriteSheet.m_Sprites.Array.data[17].m_PhysicsShape.Array.size
    value: 0
    objectReference: {fileID: 0}
  - target: {fileID: 0}
    propertyPath: m_SpriteSheet.m_Sprites.Array.data[17].m_TessellationDetail
    value: 0
    objectReference: {fileID: 0}
  - target: {fileID: 0}
    propertyPath: m_SpriteSheet.m_Sprites.Array.data[17].m_Bones.Array.size
    value: 0
    objectReference: {fileID: 0}
  - target: {fileID: 0}
    propertyPath: m_SpriteSheet.m_Sprites.Array.data[17].m_SpriteID
    value: 68c151ed9cb6cc0b0800000000000000
    objectReference: {fileID: 0}
  - target: {fileID: 0}
    propertyPath: m_SpriteSheet.m_Sprites.Array.data[17].m_InternalID
    value: -5707068113026737018
    objectReference: {fileID: 0}
  - target: {fileID: 0}
    propertyPath: m_SpriteSheet.m_Sprites.Array.data[17].m_Vertices.Array.size
    value: 0
    objectReference: {fileID: 0}
  - target: {fileID: 0}
    propertyPath: m_SpriteSheet.m_Sprites.Array.data[17].m_Indices.Array.size
    value: 0
    objectReference: {fileID: 0}
  - target: {fileID: 0}
    propertyPath: m_SpriteSheet.m_Sprites.Array.data[17].m_Edges.Array.size
    value: 0
    objectReference: {fileID: 0}
  - target: {fileID: 0}
    propertyPath: m_SpriteSheet.m_Sprites.Array.data[17].m_Weights.Array.size
    value: 0
    objectReference: {fileID: 0}
  - target: {fileID: 0}
    propertyPath: m_SpriteSheet.m_Sprites.Array.data[18].m_Name
    value: Char_atk_ground_combo_18
    objectReference: {fileID: 0}
  - target: {fileID: 0}
    propertyPath: m_SpriteSheet.m_Sprites.Array.data[18].m_Rect.x
    value: 5616
    objectReference: {fileID: 0}
  - target: {fileID: 0}
    propertyPath: m_SpriteSheet.m_Sprites.Array.data[18].m_Rect.y
    value: 0
    objectReference: {fileID: 0}
  - target: {fileID: 0}
    propertyPath: m_SpriteSheet.m_Sprites.Array.data[18].m_Rect.width
    value: 312
    objectReference: {fileID: 0}
  - target: {fileID: 0}
    propertyPath: m_SpriteSheet.m_Sprites.Array.data[18].m_Rect.height
    value: 170
    objectReference: {fileID: 0}
  - target: {fileID: 0}
    propertyPath: m_SpriteSheet.m_Sprites.Array.data[18].m_Alignment
    value: 0
    objectReference: {fileID: 0}
  - target: {fileID: 0}
    propertyPath: m_SpriteSheet.m_Sprites.Array.data[18].m_Pivot.x
    value: 0
    objectReference: {fileID: 0}
  - target: {fileID: 0}
    propertyPath: m_SpriteSheet.m_Sprites.Array.data[18].m_Pivot.y
    value: 0
    objectReference: {fileID: 0}
  - target: {fileID: 0}
    propertyPath: m_SpriteSheet.m_Sprites.Array.data[18].m_Border.x
    value: 0
    objectReference: {fileID: 0}
  - target: {fileID: 0}
    propertyPath: m_SpriteSheet.m_Sprites.Array.data[18].m_Border.y
    value: 0
    objectReference: {fileID: 0}
  - target: {fileID: 0}
    propertyPath: m_SpriteSheet.m_Sprites.Array.data[18].m_Border.z
    value: 0
    objectReference: {fileID: 0}
  - target: {fileID: 0}
    propertyPath: m_SpriteSheet.m_Sprites.Array.data[18].m_Border.w
    value: 0
    objectReference: {fileID: 0}
  - target: {fileID: 0}
    propertyPath: m_SpriteSheet.m_Sprites.Array.data[18].m_Outline.Array.size
    value: 0
    objectReference: {fileID: 0}
  - target: {fileID: 0}
    propertyPath: m_SpriteSheet.m_Sprites.Array.data[18].m_PhysicsShape.Array.size
    value: 0
    objectReference: {fileID: 0}
  - target: {fileID: 0}
    propertyPath: m_SpriteSheet.m_Sprites.Array.data[18].m_TessellationDetail
    value: 0
    objectReference: {fileID: 0}
  - target: {fileID: 0}
    propertyPath: m_SpriteSheet.m_Sprites.Array.data[18].m_Bones.Array.size
    value: 0
    objectReference: {fileID: 0}
  - target: {fileID: 0}
    propertyPath: m_SpriteSheet.m_Sprites.Array.data[18].m_SpriteID
    value: 5b3d34e0693795570800000000000000
    objectReference: {fileID: 0}
  - target: {fileID: 0}
    propertyPath: m_SpriteSheet.m_Sprites.Array.data[18].m_InternalID
    value: 8455916863686431669
    objectReference: {fileID: 0}
  - target: {fileID: 0}
    propertyPath: m_SpriteSheet.m_Sprites.Array.data[18].m_Vertices.Array.size
    value: 0
    objectReference: {fileID: 0}
  - target: {fileID: 0}
    propertyPath: m_SpriteSheet.m_Sprites.Array.data[18].m_Indices.Array.size
    value: 0
    objectReference: {fileID: 0}
  - target: {fileID: 0}
    propertyPath: m_SpriteSheet.m_Sprites.Array.data[18].m_Edges.Array.size
    value: 0
    objectReference: {fileID: 0}
  - target: {fileID: 0}
    propertyPath: m_SpriteSheet.m_Sprites.Array.data[18].m_Weights.Array.size
    value: 0
    objectReference: {fileID: 0}
  - target: {fileID: 0}
    propertyPath: m_SpriteSheet.m_Sprites.Array.data[19].m_Name
    value: Char_atk_ground_combo_19
    objectReference: {fileID: 0}
  - target: {fileID: 0}
    propertyPath: m_SpriteSheet.m_Sprites.Array.data[19].m_Rect.x
    value: 5928
    objectReference: {fileID: 0}
  - target: {fileID: 0}
    propertyPath: m_SpriteSheet.m_Sprites.Array.data[19].m_Rect.y
    value: 0
    objectReference: {fileID: 0}
  - target: {fileID: 0}
    propertyPath: m_SpriteSheet.m_Sprites.Array.data[19].m_Rect.width
    value: 312
    objectReference: {fileID: 0}
  - target: {fileID: 0}
    propertyPath: m_SpriteSheet.m_Sprites.Array.data[19].m_Rect.height
    value: 170
    objectReference: {fileID: 0}
  - target: {fileID: 0}
    propertyPath: m_SpriteSheet.m_Sprites.Array.data[19].m_Alignment
    value: 0
    objectReference: {fileID: 0}
  - target: {fileID: 0}
    propertyPath: m_SpriteSheet.m_Sprites.Array.data[19].m_Pivot.x
    value: 0
    objectReference: {fileID: 0}
  - target: {fileID: 0}
    propertyPath: m_SpriteSheet.m_Sprites.Array.data[19].m_Pivot.y
    value: 0
    objectReference: {fileID: 0}
  - target: {fileID: 0}
    propertyPath: m_SpriteSheet.m_Sprites.Array.data[19].m_Border.x
    value: 0
    objectReference: {fileID: 0}
  - target: {fileID: 0}
    propertyPath: m_SpriteSheet.m_Sprites.Array.data[19].m_Border.y
    value: 0
    objectReference: {fileID: 0}
  - target: {fileID: 0}
    propertyPath: m_SpriteSheet.m_Sprites.Array.data[19].m_Border.z
    value: 0
    objectReference: {fileID: 0}
  - target: {fileID: 0}
    propertyPath: m_SpriteSheet.m_Sprites.Array.data[19].m_Border.w
    value: 0
    objectReference: {fileID: 0}
  - target: {fileID: 0}
    propertyPath: m_SpriteSheet.m_Sprites.Array.data[19].m_Outline.Array.size
    value: 0
    objectReference: {fileID: 0}
  - target: {fileID: 0}
    propertyPath: m_SpriteSheet.m_Sprites.Array.data[19].m_PhysicsShape.Array.size
    value: 0
    objectReference: {fileID: 0}
  - target: {fileID: 0}
    propertyPath: m_SpriteSheet.m_Sprites.Array.data[19].m_TessellationDetail
    value: 0
    objectReference: {fileID: 0}
  - target: {fileID: 0}
    propertyPath: m_SpriteSheet.m_Sprites.Array.data[19].m_Bones.Array.size
    value: 0
    objectReference: {fileID: 0}
  - target: {fileID: 0}
    propertyPath: m_SpriteSheet.m_Sprites.Array.data[19].m_SpriteID
    value: 686939b3d7d4f4ac0800000000000000
    objectReference: {fileID: 0}
  - target: {fileID: 0}
    propertyPath: m_SpriteSheet.m_Sprites.Array.data[19].m_InternalID
    value: -3868788354622187898
    objectReference: {fileID: 0}
  - target: {fileID: 0}
    propertyPath: m_SpriteSheet.m_Sprites.Array.data[19].m_Vertices.Array.size
    value: 0
    objectReference: {fileID: 0}
  - target: {fileID: 0}
    propertyPath: m_SpriteSheet.m_Sprites.Array.data[19].m_Indices.Array.size
    value: 0
    objectReference: {fileID: 0}
  - target: {fileID: 0}
    propertyPath: m_SpriteSheet.m_Sprites.Array.data[19].m_Edges.Array.size
    value: 0
    objectReference: {fileID: 0}
  - target: {fileID: 0}
    propertyPath: m_SpriteSheet.m_Sprites.Array.data[19].m_Weights.Array.size
    value: 0
    objectReference: {fileID: 0}
  - target: {fileID: 0}
    propertyPath: m_SpriteSheet.m_Outline.Array.size
    value: 0
    objectReference: {fileID: 0}
  - target: {fileID: 0}
    propertyPath: m_SpriteSheet.m_PhysicsShape.Array.size
    value: 0
    objectReference: {fileID: 0}
  - target: {fileID: 0}
    propertyPath: m_SpriteSheet.m_Bones.Array.size
    value: 0
    objectReference: {fileID: 0}
  - target: {fileID: 0}
    propertyPath: m_SpriteSheet.m_SpriteID
    value: 5e97eb03825dee720800000000000000
    objectReference: {fileID: 0}
  - target: {fileID: 0}
    propertyPath: m_SpriteSheet.m_InternalID
    value: 0
    objectReference: {fileID: 0}
  - target: {fileID: 0}
    propertyPath: m_SpriteSheet.m_Vertices.Array.size
    value: 0
    objectReference: {fileID: 0}
  - target: {fileID: 0}
    propertyPath: m_SpriteSheet.m_Indices.Array.size
    value: 0
    objectReference: {fileID: 0}
  - target: {fileID: 0}
    propertyPath: m_SpriteSheet.m_Edges.Array.size
    value: 0
    objectReference: {fileID: 0}
  - target: {fileID: 0}
    propertyPath: m_SpriteSheet.m_Weights.Array.size
    value: 0
    objectReference: {fileID: 0}
  - target: {fileID: 0}
    propertyPath: m_SpriteSheet.m_SecondaryTextures.Array.size
    value: 0
    objectReference: {fileID: 0}
  - target: {fileID: 0}
    propertyPath: m_SpritePackingTag
    value: 
    objectReference: {fileID: 0}
  - target: {fileID: 0}
    propertyPath: m_PSDRemoveMatte
    value: 0
    objectReference: {fileID: 0}
  - target: {fileID: 0}
    propertyPath: m_PSDShowRemoveMatteOption
    value: 0
    objectReference: {fileID: 0}
  - target: {fileID: 0}
    propertyPath: m_UserData
    value: 
    objectReference: {fileID: 0}
  - target: {fileID: 0}
    propertyPath: m_AssetBundleName
    value: 
    objectReference: {fileID: 0}
  - target: {fileID: 0}
    propertyPath: m_AssetBundleVariant
    value: 
    objectReference: {fileID: 0}
