%YAML 1.1
%TAG !u! tag:unity3d.com,2011:
--- !u!74 &7400000
AnimationClip:
  m_ObjectHideFlags: 0
  m_CorrespondingSourceObject: {fileID: 0}
  m_PrefabInstance: {fileID: 0}
  m_PrefabAsset: {fileID: 0}
  m_Name: Death
  serializedVersion: 6
  m_Legacy: 0
  m_Compressed: 0
  m_UseHighQualityCurve: 1
  m_RotationCurves: []
  m_CompressedRotationCurves: []
  m_EulerCurves: []
  m_PositionCurves: []
  m_ScaleCurves: []
  m_FloatCurves: []
  m_PPtrCurves:
  - curve:
    - time: 0
      value: {fileID: 2812087162673745674, guid: 9898e30823df6234093ecbd04cf28a3f,
        type: 3}
    - time: 0.0625
      value: {fileID: -7841228035313433225, guid: 9898e30823df6234093ecbd04cf28a3f,
        type: 3}
    - time: 0.125
      value: {fileID: 7835526483014118206, guid: 9898e30823df6234093ecbd04cf28a3f,
        type: 3}
    - time: 0.1875
      value: {fileID: -484333588546170424, guid: 9898e30823df6234093ecbd04cf28a3f,
        type: 3}
    - time: 0.25
      value: {fileID: -658709892874317300, guid: 9898e30823df6234093ecbd04cf28a3f,
        type: 3}
    - time: 0.3125
      value: {fileID: 1902408096576298589, guid: 9898e30823df6234093ecbd04cf28a3f,
        type: 3}
    - time: 0.375
      value: {fileID: -287084737851867022, guid: 9898e30823df6234093ecbd04cf28a3f,
        type: 3}
    - time: 0.4375
      value: {fileID: 4241503033396944887, guid: 9898e30823df6234093ecbd04cf28a3f,
        type: 3}
    - time: 0.5
      value: {fileID: 5157185874703683334, guid: 9898e30823df6234093ecbd04cf28a3f,
        type: 3}
    - time: 0.5625
      value: {fileID: -8293189282050473729, guid: 9898e30823df6234093ecbd04cf28a3f,
        type: 3}
    - time: 0.625
      value: {fileID: -7546823826783732157, guid: 9898e30823df6234093ecbd04cf28a3f,
        type: 3}
    - time: 0.6875
      value: {fileID: 233697616252651955, guid: 9898e30823df6234093ecbd04cf28a3f,
        type: 3}
    - time: 0.75
      value: {fileID: 7802255318289982030, guid: 9898e30823df6234093ecbd04cf28a3f,
        type: 3}
    - time: 0.8125
      value: {fileID: -4399698605186126513, guid: 9898e30823df6234093ecbd04cf28a3f,
        type: 3}
    - time: 0.875
      value: {fileID: 1436242462992885004, guid: 9898e30823df6234093ecbd04cf28a3f,
        type: 3}
    - time: 0.9375
      value: {fileID: 2366557985637425811, guid: 9898e30823df6234093ecbd04cf28a3f,
        type: 3}
    - time: 1
      value: {fileID: 5124929920638460157, guid: 9898e30823df6234093ecbd04cf28a3f,
        type: 3}
    - time: 1.0625
      value: {fileID: 6523677823167635345, guid: 9898e30823df6234093ecbd04cf28a3f,
        type: 3}
    - time: 1.125
      value: {fileID: 4774609080738258932, guid: 9898e30823df6234093ecbd04cf28a3f,
        type: 3}
    - time: 1.1875
      value: {fileID: 2077529287679161738, guid: 9898e30823df6234093ecbd04cf28a3f,
        type: 3}
    - time: 1.25
      value: {fileID: 2401434532581227589, guid: 9898e30823df6234093ecbd04cf28a3f,
        type: 3}
    - time: 1.3125
      value: {fileID: 8217442460213894659, guid: 9898e30823df6234093ecbd04cf28a3f,
        type: 3}
    - time: 1.375
      value: {fileID: 9064303354053927043, guid: 9898e30823df6234093ecbd04cf28a3f,
        type: 3}
    - time: 1.4375
      value: {fileID: 3518705714705817877, guid: 9898e30823df6234093ecbd04cf28a3f,
        type: 3}
    attribute: m_Sprite
    path: 
    classID: 212
    script: {fileID: 0}
  m_SampleRate: 16
  m_WrapMode: 0
  m_Bounds:
    m_Center: {x: 0, y: 0, z: 0}
    m_Extent: {x: 0, y: 0, z: 0}
  m_ClipBindingConstant:
    genericBindings:
    - serializedVersion: 2
      path: 0
      attribute: 0
      script: {fileID: 0}
      typeID: 212
      customType: 23
      isPPtrCurve: 1
    pptrCurveMapping:
    - {fileID: 2812087162673745674, guid: 9898e30823df6234093ecbd04cf28a3f, type: 3}
    - {fileID: -7841228035313433225, guid: 9898e30823df6234093ecbd04cf28a3f, type: 3}
    - {fileID: 7835526483014118206, guid: 9898e30823df6234093ecbd04cf28a3f, type: 3}
    - {fileID: -484333588546170424, guid: 9898e30823df6234093ecbd04cf28a3f, type: 3}
    - {fileID: -658709892874317300, guid: 9898e30823df6234093ecbd04cf28a3f, type: 3}
    - {fileID: 1902408096576298589, guid: 9898e30823df6234093ecbd04cf28a3f, type: 3}
    - {fileID: -287084737851867022, guid: 9898e30823df6234093ecbd04cf28a3f, type: 3}
    - {fileID: 4241503033396944887, guid: 9898e30823df6234093ecbd04cf28a3f, type: 3}
    - {fileID: 5157185874703683334, guid: 9898e30823df6234093ecbd04cf28a3f, type: 3}
    - {fileID: -8293189282050473729, guid: 9898e30823df6234093ecbd04cf28a3f, type: 3}
    - {fileID: -7546823826783732157, guid: 9898e30823df6234093ecbd04cf28a3f, type: 3}
    - {fileID: 233697616252651955, guid: 9898e30823df6234093ecbd04cf28a3f, type: 3}
    - {fileID: 7802255318289982030, guid: 9898e30823df6234093ecbd04cf28a3f, type: 3}
    - {fileID: -4399698605186126513, guid: 9898e30823df6234093ecbd04cf28a3f, type: 3}
    - {fileID: 1436242462992885004, guid: 9898e30823df6234093ecbd04cf28a3f, type: 3}
    - {fileID: 2366557985637425811, guid: 9898e30823df6234093ecbd04cf28a3f, type: 3}
    - {fileID: 5124929920638460157, guid: 9898e30823df6234093ecbd04cf28a3f, type: 3}
    - {fileID: 6523677823167635345, guid: 9898e30823df6234093ecbd04cf28a3f, type: 3}
    - {fileID: 4774609080738258932, guid: 9898e30823df6234093ecbd04cf28a3f, type: 3}
    - {fileID: 2077529287679161738, guid: 9898e30823df6234093ecbd04cf28a3f, type: 3}
    - {fileID: 2401434532581227589, guid: 9898e30823df6234093ecbd04cf28a3f, type: 3}
    - {fileID: 8217442460213894659, guid: 9898e30823df6234093ecbd04cf28a3f, type: 3}
    - {fileID: 9064303354053927043, guid: 9898e30823df6234093ecbd04cf28a3f, type: 3}
    - {fileID: 3518705714705817877, guid: 9898e30823df6234093ecbd04cf28a3f, type: 3}
  m_AnimationClipSettings:
    serializedVersion: 2
    m_AdditiveReferencePoseClip: {fileID: 0}
    m_AdditiveReferencePoseTime: 0
    m_StartTime: 0
    m_StopTime: 3
    m_OrientationOffsetY: 0
    m_Level: 0
    m_CycleOffset: 0
    m_HasAdditiveReferencePose: 0
    m_LoopTime: 0
    m_LoopBlend: 0
    m_LoopBlendOrientation: 0
    m_LoopBlendPositionY: 0
    m_LoopBlendPositionXZ: 0
    m_KeepOriginalOrientation: 0
    m_KeepOriginalPositionY: 1
    m_KeepOriginalPositionXZ: 0
    m_HeightFromFeet: 0
    m_Mirror: 0
  m_EditorCurves: []
  m_EulerEditorCurves: []
  m_HasGenericRootTransform: 0
  m_HasMotionFloatCurves: 0
  m_Events:
  - time: 0
    functionName: SoundDeath
    data: 
    objectReferenceParameter: {fileID: 0}
    floatParameter: 0
    intParameter: 0
    messageOptions: 0
  - time: 3
    functionName: BackToMenu
    data: 
    objectReferenceParameter: {fileID: 0}
    floatParameter: 0
    intParameter: 0
    messageOptions: 0
