%YAML 1.1
%TAG !u! tag:unity3d.com,2011:
--- !u!74 &7400000
AnimationClip:
  m_ObjectHideFlags: 0
  m_CorrespondingSourceObject: {fileID: 0}
  m_PrefabInstance: {fileID: 0}
  m_PrefabAsset: {fileID: 0}
  m_Name: walk
  serializedVersion: 6
  m_Legacy: 0
  m_Compressed: 0
  m_UseHighQualityCurve: 1
  m_RotationCurves: []
  m_CompressedRotationCurves: []
  m_EulerCurves: []
  m_PositionCurves: []
  m_ScaleCurves: []
  m_FloatCurves: []
  m_PPtrCurves:
  - curve:
    - time: 0
      value: {fileID: -1012154782209405620, guid: aa22ae11f623b5542a7ac4b968b0dad3,
        type: 3}
    - time: 0.071428575
      value: {fileID: -7104580392151259902, guid: aa22ae11f623b5542a7ac4b968b0dad3,
        type: 3}
    - time: 0.14285715
      value: {fileID: 6057818740620472151, guid: aa22ae11f623b5542a7ac4b968b0dad3,
        type: 3}
    - time: 0.21428572
      value: {fileID: 3732680466619964335, guid: aa22ae11f623b5542a7ac4b968b0dad3,
        type: 3}
    - time: 0.2857143
      value: {fileID: -4001145275112619791, guid: aa22ae11f623b5542a7ac4b968b0dad3,
        type: 3}
    - time: 0.35714287
      value: {fileID: 1571678814813559741, guid: aa22ae11f623b5542a7ac4b968b0dad3,
        type: 3}
    - time: 0.42857143
      value: {fileID: 8507869948219741018, guid: aa22ae11f623b5542a7ac4b968b0dad3,
        type: 3}
    - time: 0.5
      value: {fileID: 2185455269032297894, guid: aa22ae11f623b5542a7ac4b968b0dad3,
        type: 3}
    attribute: m_Sprite
    path: 
    classID: 212
    script: {fileID: 0}
  m_SampleRate: 14
  m_WrapMode: 0
  m_Bounds:
    m_Center: {x: 0, y: 0, z: 0}
    m_Extent: {x: 0, y: 0, z: 0}
  m_ClipBindingConstant:
    genericBindings:
    - serializedVersion: 2
      path: 0
      attribute: 0
      script: {fileID: 0}
      typeID: 212
      customType: 23
      isPPtrCurve: 1
    pptrCurveMapping:
    - {fileID: -1012154782209405620, guid: aa22ae11f623b5542a7ac4b968b0dad3, type: 3}
    - {fileID: -7104580392151259902, guid: aa22ae11f623b5542a7ac4b968b0dad3, type: 3}
    - {fileID: 6057818740620472151, guid: aa22ae11f623b5542a7ac4b968b0dad3, type: 3}
    - {fileID: 3732680466619964335, guid: aa22ae11f623b5542a7ac4b968b0dad3, type: 3}
    - {fileID: -4001145275112619791, guid: aa22ae11f623b5542a7ac4b968b0dad3, type: 3}
    - {fileID: 1571678814813559741, guid: aa22ae11f623b5542a7ac4b968b0dad3, type: 3}
    - {fileID: 8507869948219741018, guid: aa22ae11f623b5542a7ac4b968b0dad3, type: 3}
    - {fileID: 2185455269032297894, guid: aa22ae11f623b5542a7ac4b968b0dad3, type: 3}
  m_AnimationClipSettings:
    serializedVersion: 2
    m_AdditiveReferencePoseClip: {fileID: 0}
    m_AdditiveReferencePoseTime: 0
    m_StartTime: 0
    m_StopTime: 0.5714286
    m_OrientationOffsetY: 0
    m_Level: 0
    m_CycleOffset: 0
    m_HasAdditiveReferencePose: 0
    m_LoopTime: 1
    m_LoopBlend: 0
    m_LoopBlendOrientation: 0
    m_LoopBlendPositionY: 0
    m_LoopBlendPositionXZ: 0
    m_KeepOriginalOrientation: 0
    m_KeepOriginalPositionY: 1
    m_KeepOriginalPositionXZ: 0
    m_HeightFromFeet: 0
    m_Mirror: 0
  m_EditorCurves: []
  m_EulerEditorCurves: []
  m_HasGenericRootTransform: 0
  m_HasMotionFloatCurves: 0
  m_Events:
  - time: 0.21428572
    functionName: SoundFootstep
    data: 
    objectReferenceParameter: {fileID: 0}
    floatParameter: 0
    intParameter: 0
    messageOptions: 0
  - time: 0.5
    functionName: SoundFootstep
    data: 
    objectReferenceParameter: {fileID: 0}
    floatParameter: 0
    intParameter: 0
    messageOptions: 0
