%YAML 1.1
%TAG !u! tag:unity3d.com,2011:
--- !u!1 &3207238310343344170
GameObject:
  m_ObjectHideFlags: 0
  m_CorrespondingSourceObject: {fileID: 0}
  m_PrefabInstance: {fileID: 0}
  m_PrefabAsset: {fileID: 0}
  serializedVersion: 6
  m_Component:
  - component: {fileID: 3644488547450386156}
  - component: {fileID: 8452598520228150337}
  - component: {fileID: 3393203669686776538}
  m_Layer: 31
  m_Name: Layer1
  m_TagString: Untagged
  m_Icon: {fileID: 0}
  m_NavMeshLayer: 0
  m_StaticEditorFlags: 0
  m_IsActive: 1
--- !u!4 &3644488547450386156
Transform:
  m_ObjectHideFlags: 0
  m_CorrespondingSourceObject: {fileID: 0}
  m_PrefabInstance: {fileID: 0}
  m_PrefabAsset: {fileID: 0}
  m_GameObject: {fileID: 3207238310343344170}
  m_LocalRotation: {x: -0, y: -0, z: -0, w: 1}
  m_LocalPosition: {x: 0, y: 0, z: 0}
  m_LocalScale: {x: 1, y: 1, z: 1}
  m_Children: []
  m_Father: {fileID: 1397494501798983963}
  m_RootOrder: 0
  m_LocalEulerAnglesHint: {x: 0, y: 0, z: 0}
--- !u!1839735485 &8452598520228150337
Tilemap:
  m_ObjectHideFlags: 0
  m_CorrespondingSourceObject: {fileID: 0}
  m_PrefabInstance: {fileID: 0}
  m_PrefabAsset: {fileID: 0}
  m_GameObject: {fileID: 3207238310343344170}
  m_Enabled: 1
  m_Tiles:
  - first: {x: 4, y: -5, z: 0}
    second:
      serializedVersion: 2
      m_TileIndex: 25
      m_TileSpriteIndex: 25
      m_TileMatrixIndex: 0
      m_TileColorIndex: 0
      m_TileObjectToInstantiateIndex: 65535
      m_AllTileFlags: 1073741825
  - first: {x: 5, y: -5, z: 0}
    second:
      serializedVersion: 2
      m_TileIndex: 29
      m_TileSpriteIndex: 29
      m_TileMatrixIndex: 0
      m_TileColorIndex: 0
      m_TileObjectToInstantiateIndex: 65535
      m_AllTileFlags: 1073741825
  - first: {x: 6, y: -5, z: 0}
    second:
      serializedVersion: 2
      m_TileIndex: 9
      m_TileSpriteIndex: 9
      m_TileMatrixIndex: 0
      m_TileColorIndex: 0
      m_TileObjectToInstantiateIndex: 65535
      m_AllTileFlags: 1073741825
  - first: {x: 7, y: -5, z: 0}
    second:
      serializedVersion: 2
      m_TileIndex: 35
      m_TileSpriteIndex: 35
      m_TileMatrixIndex: 0
      m_TileColorIndex: 0
      m_TileObjectToInstantiateIndex: 65535
      m_AllTileFlags: 1073741825
  - first: {x: 8, y: -5, z: 0}
    second:
      serializedVersion: 2
      m_TileIndex: 40
      m_TileSpriteIndex: 40
      m_TileMatrixIndex: 0
      m_TileColorIndex: 0
      m_TileObjectToInstantiateIndex: 65535
      m_AllTileFlags: 1073741825
  - first: {x: 0, y: -4, z: 0}
    second:
      serializedVersion: 2
      m_TileIndex: 13
      m_TileSpriteIndex: 13
      m_TileMatrixIndex: 0
      m_TileColorIndex: 0
      m_TileObjectToInstantiateIndex: 65535
      m_AllTileFlags: 1073741825
  - first: {x: 1, y: -4, z: 0}
    second:
      serializedVersion: 2
      m_TileIndex: 15
      m_TileSpriteIndex: 15
      m_TileMatrixIndex: 0
      m_TileColorIndex: 0
      m_TileObjectToInstantiateIndex: 65535
      m_AllTileFlags: 1073741825
  - first: {x: 2, y: -4, z: 0}
    second:
      serializedVersion: 2
      m_TileIndex: 18
      m_TileSpriteIndex: 18
      m_TileMatrixIndex: 0
      m_TileColorIndex: 0
      m_TileObjectToInstantiateIndex: 65535
      m_AllTileFlags: 1073741825
  - first: {x: 3, y: -4, z: 0}
    second:
      serializedVersion: 2
      m_TileIndex: 21
      m_TileSpriteIndex: 21
      m_TileMatrixIndex: 0
      m_TileColorIndex: 0
      m_TileObjectToInstantiateIndex: 65535
      m_AllTileFlags: 1073741825
  - first: {x: 4, y: -4, z: 0}
    second:
      serializedVersion: 2
      m_TileIndex: 24
      m_TileSpriteIndex: 24
      m_TileMatrixIndex: 0
      m_TileColorIndex: 0
      m_TileObjectToInstantiateIndex: 65535
      m_AllTileFlags: 1073741825
  - first: {x: 5, y: -4, z: 0}
    second:
      serializedVersion: 2
      m_TileIndex: 28
      m_TileSpriteIndex: 28
      m_TileMatrixIndex: 0
      m_TileColorIndex: 0
      m_TileObjectToInstantiateIndex: 65535
      m_AllTileFlags: 1073741825
  - first: {x: 6, y: -4, z: 0}
    second:
      serializedVersion: 2
      m_TileIndex: 1
      m_TileSpriteIndex: 1
      m_TileMatrixIndex: 0
      m_TileColorIndex: 0
      m_TileObjectToInstantiateIndex: 65535
      m_AllTileFlags: 1073741825
  - first: {x: 7, y: -4, z: 0}
    second:
      serializedVersion: 2
      m_TileIndex: 34
      m_TileSpriteIndex: 34
      m_TileMatrixIndex: 0
      m_TileColorIndex: 0
      m_TileObjectToInstantiateIndex: 65535
      m_AllTileFlags: 1073741825
  - first: {x: 8, y: -4, z: 0}
    second:
      serializedVersion: 2
      m_TileIndex: 39
      m_TileSpriteIndex: 39
      m_TileMatrixIndex: 0
      m_TileColorIndex: 0
      m_TileObjectToInstantiateIndex: 65535
      m_AllTileFlags: 1073741825
  - first: {x: 9, y: -4, z: 0}
    second:
      serializedVersion: 2
      m_TileIndex: 44
      m_TileSpriteIndex: 44
      m_TileMatrixIndex: 0
      m_TileColorIndex: 0
      m_TileObjectToInstantiateIndex: 65535
      m_AllTileFlags: 1073741825
  - first: {x: 10, y: -4, z: 0}
    second:
      serializedVersion: 2
      m_TileIndex: 46
      m_TileSpriteIndex: 46
      m_TileMatrixIndex: 0
      m_TileColorIndex: 0
      m_TileObjectToInstantiateIndex: 65535
      m_AllTileFlags: 1073741825
  - first: {x: 0, y: -3, z: 0}
    second:
      serializedVersion: 2
      m_TileIndex: 7
      m_TileSpriteIndex: 7
      m_TileMatrixIndex: 0
      m_TileColorIndex: 0
      m_TileObjectToInstantiateIndex: 65535
      m_AllTileFlags: 1073741825
  - first: {x: 1, y: -3, z: 0}
    second:
      serializedVersion: 2
      m_TileIndex: 2
      m_TileSpriteIndex: 2
      m_TileMatrixIndex: 0
      m_TileColorIndex: 0
      m_TileObjectToInstantiateIndex: 65535
      m_AllTileFlags: 1073741825
  - first: {x: 2, y: -3, z: 0}
    second:
      serializedVersion: 2
      m_TileIndex: 17
      m_TileSpriteIndex: 17
      m_TileMatrixIndex: 0
      m_TileColorIndex: 0
      m_TileObjectToInstantiateIndex: 65535
      m_AllTileFlags: 1073741825
  - first: {x: 3, y: -3, z: 0}
    second:
      serializedVersion: 2
      m_TileIndex: 20
      m_TileSpriteIndex: 20
      m_TileMatrixIndex: 0
      m_TileColorIndex: 0
      m_TileObjectToInstantiateIndex: 65535
      m_AllTileFlags: 1073741825
  - first: {x: 4, y: -3, z: 0}
    second:
      serializedVersion: 2
      m_TileIndex: 23
      m_TileSpriteIndex: 23
      m_TileMatrixIndex: 0
      m_TileColorIndex: 0
      m_TileObjectToInstantiateIndex: 65535
      m_AllTileFlags: 1073741825
  - first: {x: 5, y: -3, z: 0}
    second:
      serializedVersion: 2
      m_TileIndex: 27
      m_TileSpriteIndex: 27
      m_TileMatrixIndex: 0
      m_TileColorIndex: 0
      m_TileObjectToInstantiateIndex: 65535
      m_AllTileFlags: 1073741825
  - first: {x: 6, y: -3, z: 0}
    second:
      serializedVersion: 2
      m_TileIndex: 32
      m_TileSpriteIndex: 32
      m_TileMatrixIndex: 0
      m_TileColorIndex: 0
      m_TileObjectToInstantiateIndex: 65535
      m_AllTileFlags: 1073741825
  - first: {x: 7, y: -3, z: 0}
    second:
      serializedVersion: 2
      m_TileIndex: 33
      m_TileSpriteIndex: 33
      m_TileMatrixIndex: 0
      m_TileColorIndex: 0
      m_TileObjectToInstantiateIndex: 65535
      m_AllTileFlags: 1073741825
  - first: {x: 8, y: -3, z: 0}
    second:
      serializedVersion: 2
      m_TileIndex: 38
      m_TileSpriteIndex: 38
      m_TileMatrixIndex: 0
      m_TileColorIndex: 0
      m_TileObjectToInstantiateIndex: 65535
      m_AllTileFlags: 1073741825
  - first: {x: 9, y: -3, z: 0}
    second:
      serializedVersion: 2
      m_TileIndex: 43
      m_TileSpriteIndex: 43
      m_TileMatrixIndex: 0
      m_TileColorIndex: 0
      m_TileObjectToInstantiateIndex: 65535
      m_AllTileFlags: 1073741825
  - first: {x: 10, y: -3, z: 0}
    second:
      serializedVersion: 2
      m_TileIndex: 45
      m_TileSpriteIndex: 45
      m_TileMatrixIndex: 0
      m_TileColorIndex: 0
      m_TileObjectToInstantiateIndex: 65535
      m_AllTileFlags: 1073741825
  - first: {x: 0, y: -2, z: 0}
    second:
      serializedVersion: 2
      m_TileIndex: 12
      m_TileSpriteIndex: 12
      m_TileMatrixIndex: 0
      m_TileColorIndex: 0
      m_TileObjectToInstantiateIndex: 65535
      m_AllTileFlags: 1073741825
  - first: {x: 1, y: -2, z: 0}
    second:
      serializedVersion: 2
      m_TileIndex: 0
      m_TileSpriteIndex: 0
      m_TileMatrixIndex: 0
      m_TileColorIndex: 0
      m_TileObjectToInstantiateIndex: 65535
      m_AllTileFlags: 1073741825
  - first: {x: 2, y: -2, z: 0}
    second:
      serializedVersion: 2
      m_TileIndex: 16
      m_TileSpriteIndex: 16
      m_TileMatrixIndex: 0
      m_TileColorIndex: 0
      m_TileObjectToInstantiateIndex: 65535
      m_AllTileFlags: 1073741825
  - first: {x: 3, y: -2, z: 0}
    second:
      serializedVersion: 2
      m_TileIndex: 10
      m_TileSpriteIndex: 10
      m_TileMatrixIndex: 0
      m_TileColorIndex: 0
      m_TileObjectToInstantiateIndex: 65535
      m_AllTileFlags: 1073741825
  - first: {x: 4, y: -2, z: 0}
    second:
      serializedVersion: 2
      m_TileIndex: 5
      m_TileSpriteIndex: 5
      m_TileMatrixIndex: 0
      m_TileColorIndex: 0
      m_TileObjectToInstantiateIndex: 65535
      m_AllTileFlags: 1073741825
  - first: {x: 5, y: -2, z: 0}
    second:
      serializedVersion: 2
      m_TileIndex: 3
      m_TileSpriteIndex: 3
      m_TileMatrixIndex: 0
      m_TileColorIndex: 0
      m_TileObjectToInstantiateIndex: 65535
      m_AllTileFlags: 1073741825
  - first: {x: 6, y: -2, z: 0}
    second:
      serializedVersion: 2
      m_TileIndex: 31
      m_TileSpriteIndex: 31
      m_TileMatrixIndex: 0
      m_TileColorIndex: 0
      m_TileObjectToInstantiateIndex: 65535
      m_AllTileFlags: 1073741825
  - first: {x: 7, y: -2, z: 0}
    second:
      serializedVersion: 2
      m_TileIndex: 4
      m_TileSpriteIndex: 4
      m_TileMatrixIndex: 0
      m_TileColorIndex: 0
      m_TileObjectToInstantiateIndex: 65535
      m_AllTileFlags: 1073741825
  - first: {x: 8, y: -2, z: 0}
    second:
      serializedVersion: 2
      m_TileIndex: 37
      m_TileSpriteIndex: 37
      m_TileMatrixIndex: 0
      m_TileColorIndex: 0
      m_TileObjectToInstantiateIndex: 65535
      m_AllTileFlags: 1073741825
  - first: {x: 9, y: -2, z: 0}
    second:
      serializedVersion: 2
      m_TileIndex: 42
      m_TileSpriteIndex: 42
      m_TileMatrixIndex: 0
      m_TileColorIndex: 0
      m_TileObjectToInstantiateIndex: 65535
      m_AllTileFlags: 1073741825
  - first: {x: 0, y: -1, z: 0}
    second:
      serializedVersion: 2
      m_TileIndex: 11
      m_TileSpriteIndex: 11
      m_TileMatrixIndex: 0
      m_TileColorIndex: 0
      m_TileObjectToInstantiateIndex: 65535
      m_AllTileFlags: 1073741825
  - first: {x: 1, y: -1, z: 0}
    second:
      serializedVersion: 2
      m_TileIndex: 14
      m_TileSpriteIndex: 14
      m_TileMatrixIndex: 0
      m_TileColorIndex: 0
      m_TileObjectToInstantiateIndex: 65535
      m_AllTileFlags: 1073741825
  - first: {x: 2, y: -1, z: 0}
    second:
      serializedVersion: 2
      m_TileIndex: 6
      m_TileSpriteIndex: 6
      m_TileMatrixIndex: 0
      m_TileColorIndex: 0
      m_TileObjectToInstantiateIndex: 65535
      m_AllTileFlags: 1073741825
  - first: {x: 3, y: -1, z: 0}
    second:
      serializedVersion: 2
      m_TileIndex: 19
      m_TileSpriteIndex: 19
      m_TileMatrixIndex: 0
      m_TileColorIndex: 0
      m_TileObjectToInstantiateIndex: 65535
      m_AllTileFlags: 1073741825
  - first: {x: 4, y: -1, z: 0}
    second:
      serializedVersion: 2
      m_TileIndex: 22
      m_TileSpriteIndex: 22
      m_TileMatrixIndex: 0
      m_TileColorIndex: 0
      m_TileObjectToInstantiateIndex: 65535
      m_AllTileFlags: 1073741825
  - first: {x: 5, y: -1, z: 0}
    second:
      serializedVersion: 2
      m_TileIndex: 26
      m_TileSpriteIndex: 26
      m_TileMatrixIndex: 0
      m_TileColorIndex: 0
      m_TileObjectToInstantiateIndex: 65535
      m_AllTileFlags: 1073741825
  - first: {x: 6, y: -1, z: 0}
    second:
      serializedVersion: 2
      m_TileIndex: 30
      m_TileSpriteIndex: 30
      m_TileMatrixIndex: 0
      m_TileColorIndex: 0
      m_TileObjectToInstantiateIndex: 65535
      m_AllTileFlags: 1073741825
  - first: {x: 7, y: -1, z: 0}
    second:
      serializedVersion: 2
      m_TileIndex: 8
      m_TileSpriteIndex: 8
      m_TileMatrixIndex: 0
      m_TileColorIndex: 0
      m_TileObjectToInstantiateIndex: 65535
      m_AllTileFlags: 1073741825
  - first: {x: 8, y: -1, z: 0}
    second:
      serializedVersion: 2
      m_TileIndex: 36
      m_TileSpriteIndex: 36
      m_TileMatrixIndex: 0
      m_TileColorIndex: 0
      m_TileObjectToInstantiateIndex: 65535
      m_AllTileFlags: 1073741825
  - first: {x: 9, y: -1, z: 0}
    second:
      serializedVersion: 2
      m_TileIndex: 41
      m_TileSpriteIndex: 41
      m_TileMatrixIndex: 0
      m_TileColorIndex: 0
      m_TileObjectToInstantiateIndex: 65535
      m_AllTileFlags: 1073741825
  m_AnimatedTiles: {}
  m_TileAssetArray:
  - m_RefCount: 1
    m_Data: {fileID: 11400000, guid: 70c2486c3e0173541835db3c77e3de90, type: 2}
  - m_RefCount: 1
    m_Data: {fileID: 11400000, guid: a63eaa7f1b63b1141bc05264e5eb94a0, type: 2}
  - m_RefCount: 1
    m_Data: {fileID: 11400000, guid: 1f877ca3d7151a94ca6af482f2870b3a, type: 2}
  - m_RefCount: 1
    m_Data: {fileID: 11400000, guid: 573fda3ecd3c93b44aebaefcffcfe9a8, type: 2}
  - m_RefCount: 1
    m_Data: {fileID: 11400000, guid: bd64f62e92b113947b2f4f82565f2242, type: 2}
  - m_RefCount: 1
    m_Data: {fileID: 11400000, guid: 88c717ed8109355419eb6b2ff13b734f, type: 2}
  - m_RefCount: 1
    m_Data: {fileID: 11400000, guid: 6249e5e82a4416b4ea652690d7c12ea9, type: 2}
  - m_RefCount: 1
    m_Data: {fileID: 11400000, guid: 3e32f440b4d27514ab79aa6c4fdba1a3, type: 2}
  - m_RefCount: 1
    m_Data: {fileID: 11400000, guid: 281e76e0071daf34b9ffe35396adcb6e, type: 2}
  - m_RefCount: 1
    m_Data: {fileID: 11400000, guid: d74eba9ca3430fa47b72b17d150f82a2, type: 2}
  - m_RefCount: 1
    m_Data: {fileID: 11400000, guid: 0b225b97a008e924facc5d0ff6207eb7, type: 2}
  - m_RefCount: 1
    m_Data: {fileID: 11400000, guid: 3da4beb15d3fa794a97bea38439e62e1, type: 2}
  - m_RefCount: 1
    m_Data: {fileID: 11400000, guid: a7a4d1ab4a01a634e82859a2c226da39, type: 2}
  - m_RefCount: 1
    m_Data: {fileID: 11400000, guid: b9be9c682cf95fa4583b435d994220dc, type: 2}
  - m_RefCount: 1
    m_Data: {fileID: 11400000, guid: 158a675519d28b5408d40b0bd7be039b, type: 2}
  - m_RefCount: 1
    m_Data: {fileID: 11400000, guid: b597f26dd469a1644b684954796a31bd, type: 2}
  - m_RefCount: 1
    m_Data: {fileID: 11400000, guid: e435d1fb9b8138a448f7aaa025784b41, type: 2}
  - m_RefCount: 1
    m_Data: {fileID: 11400000, guid: 819d2f1031c65d640ace73d40ab0b42b, type: 2}
  - m_RefCount: 1
    m_Data: {fileID: 11400000, guid: a8fc273e4cf9fb6459fb9597abf24321, type: 2}
  - m_RefCount: 1
    m_Data: {fileID: 11400000, guid: 724b8772e4c95424d93c7aa3357b6917, type: 2}
  - m_RefCount: 1
    m_Data: {fileID: 11400000, guid: 97de01539fa3b24449d2b2749ceafe24, type: 2}
  - m_RefCount: 1
    m_Data: {fileID: 11400000, guid: 6b82a35e7b0803142a4d14dfd2218c20, type: 2}
  - m_RefCount: 1
    m_Data: {fileID: 11400000, guid: efe2de955346eec43b4ad14c5d1a2980, type: 2}
  - m_RefCount: 1
    m_Data: {fileID: 11400000, guid: 787dcc1e6f519164e9e0abd11b4ff5dd, type: 2}
  - m_RefCount: 1
    m_Data: {fileID: 11400000, guid: 393b45e604e9af14cb43e3d6b4e25f82, type: 2}
  - m_RefCount: 1
    m_Data: {fileID: 11400000, guid: 4ba8d343444a7e448b1eb6277223930b, type: 2}
  - m_RefCount: 1
    m_Data: {fileID: 11400000, guid: 2811a62a503cbdc41b2ca5712c0f272c, type: 2}
  - m_RefCount: 1
    m_Data: {fileID: 11400000, guid: b1668a9be6583b1419cebb599bde9a8c, type: 2}
  - m_RefCount: 1
    m_Data: {fileID: 11400000, guid: afe203f7230334d4daac9cd599194a8f, type: 2}
  - m_RefCount: 1
    m_Data: {fileID: 11400000, guid: 93d909537522c044a96516c9b9231512, type: 2}
  - m_RefCount: 1
    m_Data: {fileID: 11400000, guid: 0eb1e8f1c2a05de4fa8f5a06a47cc507, type: 2}
  - m_RefCount: 1
    m_Data: {fileID: 11400000, guid: 62200ef7947fb5243ae9a70f3625ddf9, type: 2}
  - m_RefCount: 1
    m_Data: {fileID: 11400000, guid: 8b2c181b8a3c8804da2374007535bffd, type: 2}
  - m_RefCount: 1
    m_Data: {fileID: 11400000, guid: 15a41a785b9a6684191068b33e27d1f8, type: 2}
  - m_RefCount: 1
    m_Data: {fileID: 11400000, guid: 93cc0c041e12b684bbd49bd405f82b0f, type: 2}
  - m_RefCount: 1
    m_Data: {fileID: 11400000, guid: 1ff7ccfefae16fd4eaee6d9a5209f914, type: 2}
  - m_RefCount: 1
    m_Data: {fileID: 11400000, guid: 5dab2fb8f221fac4cafd4552db4e2d02, type: 2}
  - m_RefCount: 1
    m_Data: {fileID: 11400000, guid: 1f553f30f772fcc4782dcf90373d40ae, type: 2}
  - m_RefCount: 1
    m_Data: {fileID: 11400000, guid: 7e00639dea23c1f40b249a6c9a0bdb97, type: 2}
  - m_RefCount: 1
    m_Data: {fileID: 11400000, guid: 9c760f80ef301094e8c474ad897761de, type: 2}
  - m_RefCount: 1
    m_Data: {fileID: 11400000, guid: a773d1aadb48f3b49a280aa8ed8a233e, type: 2}
  - m_RefCount: 1
    m_Data: {fileID: 11400000, guid: 8483f52903d7ef14ea4f12c365726d5d, type: 2}
  - m_RefCount: 1
    m_Data: {fileID: 11400000, guid: 6284b776a70a1b240a1cb8326817883f, type: 2}
  - m_RefCount: 1
    m_Data: {fileID: 11400000, guid: 389d1b8c0bc5a5c468d545db03ee43cb, type: 2}
  - m_RefCount: 1
    m_Data: {fileID: 11400000, guid: a99ac339cdbab914b8d2bc8bc2fbbdbd, type: 2}
  - m_RefCount: 1
    m_Data: {fileID: 11400000, guid: 9c8a331bcbcecfe498bb26742663c358, type: 2}
  - m_RefCount: 1
    m_Data: {fileID: 11400000, guid: d651d68cb61f7ca4b937e040752f5f18, type: 2}
  m_TileSpriteArray:
  - m_RefCount: 1
    m_Data: {fileID: 21300010, guid: 59e479aac7a77c30ca33384628f5bd07, type: 3}
  - m_RefCount: 1
    m_Data: {fileID: 21300058, guid: 59e479aac7a77c30ca33384628f5bd07, type: 3}
  - m_RefCount: 1
    m_Data: {fileID: 21300012, guid: 59e479aac7a77c30ca33384628f5bd07, type: 3}
  - m_RefCount: 1
    m_Data: {fileID: 21300044, guid: 59e479aac7a77c30ca33384628f5bd07, type: 3}
  - m_RefCount: 1
    m_Data: {fileID: 21300064, guid: 59e479aac7a77c30ca33384628f5bd07, type: 3}
  - m_RefCount: 1
    m_Data: {fileID: 21300034, guid: 59e479aac7a77c30ca33384628f5bd07, type: 3}
  - m_RefCount: 1
    m_Data: {fileID: 21300016, guid: 59e479aac7a77c30ca33384628f5bd07, type: 3}
  - m_RefCount: 1
    m_Data: {fileID: 21300004, guid: 59e479aac7a77c30ca33384628f5bd07, type: 3}
  - m_RefCount: 1
    m_Data: {fileID: 21300062, guid: 59e479aac7a77c30ca33384628f5bd07, type: 3}
  - m_RefCount: 1
    m_Data: {fileID: 21300060, guid: 59e479aac7a77c30ca33384628f5bd07, type: 3}
  - m_RefCount: 1
    m_Data: {fileID: 21300026, guid: 59e479aac7a77c30ca33384628f5bd07, type: 3}
  - m_RefCount: 1
    m_Data: {fileID: 21300000, guid: 59e479aac7a77c30ca33384628f5bd07, type: 3}
  - m_RefCount: 1
    m_Data: {fileID: 21300002, guid: 59e479aac7a77c30ca33384628f5bd07, type: 3}
  - m_RefCount: 1
    m_Data: {fileID: 21300006, guid: 59e479aac7a77c30ca33384628f5bd07, type: 3}
  - m_RefCount: 1
    m_Data: {fileID: 21300008, guid: 59e479aac7a77c30ca33384628f5bd07, type: 3}
  - m_RefCount: 1
    m_Data: {fileID: 21300014, guid: 59e479aac7a77c30ca33384628f5bd07, type: 3}
  - m_RefCount: 1
    m_Data: {fileID: 21300018, guid: 59e479aac7a77c30ca33384628f5bd07, type: 3}
  - m_RefCount: 1
    m_Data: {fileID: 21300020, guid: 59e479aac7a77c30ca33384628f5bd07, type: 3}
  - m_RefCount: 1
    m_Data: {fileID: 21300022, guid: 59e479aac7a77c30ca33384628f5bd07, type: 3}
  - m_RefCount: 1
    m_Data: {fileID: 21300024, guid: 59e479aac7a77c30ca33384628f5bd07, type: 3}
  - m_RefCount: 1
    m_Data: {fileID: 21300028, guid: 59e479aac7a77c30ca33384628f5bd07, type: 3}
  - m_RefCount: 1
    m_Data: {fileID: 21300030, guid: 59e479aac7a77c30ca33384628f5bd07, type: 3}
  - m_RefCount: 1
    m_Data: {fileID: 21300032, guid: 59e479aac7a77c30ca33384628f5bd07, type: 3}
  - m_RefCount: 1
    m_Data: {fileID: 21300036, guid: 59e479aac7a77c30ca33384628f5bd07, type: 3}
  - m_RefCount: 1
    m_Data: {fileID: 21300038, guid: 59e479aac7a77c30ca33384628f5bd07, type: 3}
  - m_RefCount: 1
    m_Data: {fileID: 21300040, guid: 59e479aac7a77c30ca33384628f5bd07, type: 3}
  - m_RefCount: 1
    m_Data: {fileID: 21300042, guid: 59e479aac7a77c30ca33384628f5bd07, type: 3}
  - m_RefCount: 1
    m_Data: {fileID: 21300046, guid: 59e479aac7a77c30ca33384628f5bd07, type: 3}
  - m_RefCount: 1
    m_Data: {fileID: 21300048, guid: 59e479aac7a77c30ca33384628f5bd07, type: 3}
  - m_RefCount: 1
    m_Data: {fileID: 21300050, guid: 59e479aac7a77c30ca33384628f5bd07, type: 3}
  - m_RefCount: 1
    m_Data: {fileID: 21300052, guid: 59e479aac7a77c30ca33384628f5bd07, type: 3}
  - m_RefCount: 1
    m_Data: {fileID: 21300054, guid: 59e479aac7a77c30ca33384628f5bd07, type: 3}
  - m_RefCount: 1
    m_Data: {fileID: 21300056, guid: 59e479aac7a77c30ca33384628f5bd07, type: 3}
  - m_RefCount: 1
    m_Data: {fileID: 21300066, guid: 59e479aac7a77c30ca33384628f5bd07, type: 3}
  - m_RefCount: 1
    m_Data: {fileID: 21300068, guid: 59e479aac7a77c30ca33384628f5bd07, type: 3}
  - m_RefCount: 1
    m_Data: {fileID: 21300070, guid: 59e479aac7a77c30ca33384628f5bd07, type: 3}
  - m_RefCount: 1
    m_Data: {fileID: 21300072, guid: 59e479aac7a77c30ca33384628f5bd07, type: 3}
  - m_RefCount: 1
    m_Data: {fileID: 21300074, guid: 59e479aac7a77c30ca33384628f5bd07, type: 3}
  - m_RefCount: 1
    m_Data: {fileID: 21300076, guid: 59e479aac7a77c30ca33384628f5bd07, type: 3}
  - m_RefCount: 1
    m_Data: {fileID: 21300078, guid: 59e479aac7a77c30ca33384628f5bd07, type: 3}
  - m_RefCount: 1
    m_Data: {fileID: 21300080, guid: 59e479aac7a77c30ca33384628f5bd07, type: 3}
  - m_RefCount: 1
    m_Data: {fileID: 21300082, guid: 59e479aac7a77c30ca33384628f5bd07, type: 3}
  - m_RefCount: 1
    m_Data: {fileID: 21300084, guid: 59e479aac7a77c30ca33384628f5bd07, type: 3}
  - m_RefCount: 1
    m_Data: {fileID: 21300086, guid: 59e479aac7a77c30ca33384628f5bd07, type: 3}
  - m_RefCount: 1
    m_Data: {fileID: 21300088, guid: 59e479aac7a77c30ca33384628f5bd07, type: 3}
  - m_RefCount: 1
    m_Data: {fileID: 21300090, guid: 59e479aac7a77c30ca33384628f5bd07, type: 3}
  - m_RefCount: 1
    m_Data: {fileID: 21300092, guid: 59e479aac7a77c30ca33384628f5bd07, type: 3}
  m_TileMatrixArray:
  - m_RefCount: 47
    m_Data:
      e00: 1
      e01: 0
      e02: 0
      e03: 0
      e10: 0
      e11: 1
      e12: 0
      e13: 0
      e20: 0
      e21: 0
      e22: 1
      e23: 0
      e30: 0
      e31: 0
      e32: 0
      e33: 1
  m_TileColorArray:
  - m_RefCount: 47
    m_Data: {r: 1, g: 1, b: 1, a: 1}
  m_TileObjectToInstantiateArray: []
  m_AnimationFrameRate: 1
  m_Color: {r: 1, g: 1, b: 1, a: 1}
  m_Origin: {x: 0, y: -5, z: 0}
  m_Size: {x: 11, y: 5, z: 1}
  m_TileAnchor: {x: 0.5, y: 0.5, z: 0}
  m_TileOrientation: 0
  m_TileOrientationMatrix:
    e00: 1
    e01: 0
    e02: 0
    e03: 0
    e10: 0
    e11: 1
    e12: 0
    e13: 0
    e20: 0
    e21: 0
    e22: 1
    e23: 0
    e30: 0
    e31: 0
    e32: 0
    e33: 1
--- !u!483693784 &3393203669686776538
TilemapRenderer:
  m_ObjectHideFlags: 0
  m_CorrespondingSourceObject: {fileID: 0}
  m_PrefabInstance: {fileID: 0}
  m_PrefabAsset: {fileID: 0}
  m_GameObject: {fileID: 3207238310343344170}
  m_Enabled: 0
  m_CastShadows: 0
  m_ReceiveShadows: 0
  m_DynamicOccludee: 0
  m_MotionVectors: 1
  m_LightProbeUsage: 0
  m_ReflectionProbeUsage: 0
  m_RayTracingMode: 0
  m_RenderingLayerMask: 1
  m_RendererPriority: 0
  m_Materials:
  - {fileID: 10754, guid: 0000000000000000f000000000000000, type: 0}
  m_StaticBatchInfo:
    firstSubMesh: 0
    subMeshCount: 0
  m_StaticBatchRoot: {fileID: 0}
  m_ProbeAnchor: {fileID: 0}
  m_LightProbeVolumeOverride: {fileID: 0}
  m_ScaleInLightmap: 1
  m_ReceiveGI: 1
  m_PreserveUVs: 0
  m_IgnoreNormalsForChartDetection: 0
  m_ImportantGI: 0
  m_StitchLightmapSeams: 1
  m_SelectedEditorRenderState: 0
  m_MinimumChartSize: 4
  m_AutoUVMaxDistance: 0.5
  m_AutoUVMaxAngle: 89
  m_LightmapParameters: {fileID: 0}
  m_SortingLayerID: 0
  m_SortingLayer: 0
  m_SortingOrder: 0
  m_ChunkSize: {x: 32, y: 32, z: 32}
  m_ChunkCullingBounds: {x: 0, y: 0, z: 0}
  m_MaxChunkCount: 16
  m_MaxFrameAge: 16
  m_SortOrder: 0
  m_Mode: 0
  m_DetectChunkCullingBounds: 0
  m_MaskInteraction: 0
--- !u!1 &7415548900133769631
GameObject:
  m_ObjectHideFlags: 0
  m_CorrespondingSourceObject: {fileID: 0}
  m_PrefabInstance: {fileID: 0}
  m_PrefabAsset: {fileID: 0}
  serializedVersion: 6
  m_Component:
  - component: {fileID: 1397494501798983963}
  - component: {fileID: 8582842978643217058}
  m_Layer: 31
  m_Name: FullPalette
  m_TagString: Untagged
  m_Icon: {fileID: 0}
  m_NavMeshLayer: 0
  m_StaticEditorFlags: 0
  m_IsActive: 1
--- !u!4 &1397494501798983963
Transform:
  m_ObjectHideFlags: 0
  m_CorrespondingSourceObject: {fileID: 0}
  m_PrefabInstance: {fileID: 0}
  m_PrefabAsset: {fileID: 0}
  m_GameObject: {fileID: 7415548900133769631}
  m_LocalRotation: {x: 0, y: 0, z: 0, w: 1}
  m_LocalPosition: {x: 0, y: 0, z: 0}
  m_LocalScale: {x: 1, y: 1, z: 1}
  m_Children:
  - {fileID: 3644488547450386156}
  m_Father: {fileID: 0}
  m_RootOrder: 0
  m_LocalEulerAnglesHint: {x: 0, y: 0, z: 0}
--- !u!156049354 &8582842978643217058
Grid:
  m_ObjectHideFlags: 0
  m_CorrespondingSourceObject: {fileID: 0}
  m_PrefabInstance: {fileID: 0}
  m_PrefabAsset: {fileID: 0}
  m_GameObject: {fileID: 7415548900133769631}
  m_Enabled: 1
  m_CellSize: {x: 0.25, y: 0.25, z: 0}
  m_CellGap: {x: 0, y: 0, z: 0}
  m_CellLayout: 0
  m_CellSwizzle: 0
--- !u!114 &3253270352899017613
MonoBehaviour:
  m_ObjectHideFlags: 0
  m_CorrespondingSourceObject: {fileID: 0}
  m_PrefabInstance: {fileID: 0}
  m_PrefabAsset: {fileID: 0}
  m_GameObject: {fileID: 0}
  m_Enabled: 1
  m_EditorHideFlags: 0
  m_Script: {fileID: 12395, guid: 0000000000000000e000000000000000, type: 0}
  m_Name: Palette Settings
  m_EditorClassIdentifier: 
  cellSizing: 100
